TESTBENCH/sims/state.vcd
$date
	Mon Jun 22 11:48:38 2026
$end
$version
	Icarus Verilog
$end
$timescale
	1ps
$end
$scope module tb_state_machine $end
$var wire 1 ! load $end
$var wire 1 " d_out $end
$var wire 1 # clk_out $end
$var parameter 2 $ CTRL_ASCII $end
$var parameter 2 % CTRL_BLINK $end
$var parameter 2 & CTRL_BRIGHTNESS $end
$var parameter 2 ' CTRL_ENABLE $end
$var reg 32 ( ascii_data [31:0] $end
$var reg 1 ) clk $end
$var reg 8 * ctrl_reg [7:0] $end
$var reg 1 + display_kick $end
$scope module uut $end
$var wire 32 , ascii_data [31:0] $end
$var wire 1 ) clk $end
$var wire 1 - cmd_valid $end
$var wire 8 . ctrl_reg [7:0] $end
$var wire 1 / ready $end
$var wire 1 0 packet_valid $end
$var wire 64 1 packet [63:0] $end
$var wire 1 ! load $end
$var wire 1 " d_out $end
$var wire 2 2 cmd_op [1:0] $end
$var wire 2 3 cmd_arg [1:0] $end
$var wire 1 # clk_out $end
$var wire 1 4 busy $end
$var parameter 2 5 ASCII $end
$var parameter 2 6 BLINK_IDX $end
$var parameter 2 7 BRIGHTNESS $end
$var parameter 4 8 BRIGHTNESS_CHANGE $end
$var parameter 4 9 DECODE_OFF $end
$var parameter 2 : ENABLE $end
$var parameter 4 ; IDLE $end
$var parameter 4 < SEND_CTRL_REG $end
$var parameter 4 = START_SEND $end
$var parameter 4 > START_TRANSLATION $end
$var parameter 4 ? STEP_ROW $end
$var parameter 4 @ TRANSLATION $end
$var parameter 4 A WAIT_SEND_SIMPLE $end
$var parameter 4 B WAIT_TRANS $end
$var reg 1 C abort $end
$var reg 2 D blink_idx [1:0] $end
$var reg 2 E brightness [1:0] $end
$var reg 1 F cmd_pend $end
$var reg 8 G ctrl_s1 [7:0] $end
$var reg 8 H ctrl_s2 [7:0] $end
$var reg 8 I ctrl_s3 [7:0] $end
$var reg 64 J data [63:0] $end
$var reg 2 K pend_arg [1:0] $end
$var reg 2 L pend_op [1:0] $end
$var reg 4 M row_idx [3:0] $end
$var reg 1 N start_fifo $end
$var reg 1 O start_trans $end
$var reg 4 P state [3:0] $end
$scope module fifo $end
$var wire 1 C abort $end
$var wire 1 ) clk_in $end
$var wire 64 Q data [63:0] $end
$var wire 1 N start $end
$var parameter 2 R IDLE $end
$var parameter 2 S LATCH $end
$var parameter 32 T N $end
$var parameter 2 U SHIFT $end
$var parameter 64 V TOTAL_BITS $end
$var reg 7 W bit_cnt [6:0] $end
$var reg 1 4 busy $end
$var reg 1 # clk_out $end
$var reg 1 " d_out $end
$var reg 1 ! load $end
$var reg 1 X phase $end
$var reg 64 Y shreg [63:0] $end
$var reg 2 Z state [1:0] $end
$upscope $end
$scope module trans $end
$var wire 28 [ ascii_data [27:0] $end
$var wire 1 ) clk $end
$var wire 3 \ row_idx [2:0] $end
$var wire 1 O start $end
$var wire 8 ] row_data [7:0] $end
$var parameter 3 ^ DONE $end
$var parameter 3 _ FETCH $end
$var parameter 3 ` IDLE $end
$var parameter 32 a N $end
$var parameter 3 b STORE $end
$var parameter 3 c WAIT_ROM $end
$var reg 7 d ascii_code [6:0] $end
$var reg 3 e idx [2:0] $end
$var reg 1 0 packet_valid $end
$var reg 1 / ready $end
$var reg 64 f row_packet [63:0] $end
$var reg 3 g state [2:0] $end
$scope module ascii_rom $end
$var wire 7 h ascii_code [6:0] $end
$var wire 1 ) clk $end
$var wire 3 i row_index [2:0] $end
$var reg 64 j full_char [63:0] $end
$var reg 8 k row_data [7:0] $end
$upscope $end
$upscope $end
$upscope $end
$scope task display_cmd $end
$var reg 2 l arg [1:0] $end
$var reg 2 m op [1:0] $end
$upscope $end
$scope task display_send $end
$var reg 7 n c0 [6:0] $end
$var reg 7 o c1 [6:0] $end
$var reg 7 p c2 [6:0] $end
$var reg 7 q c3 [6:0] $end
$upscope $end
$upscope $end
$enddefinitions $end
$comment Show the parameter values. $end
$dumpall
b11 c
b100 b
b100 a
b0 `
b1 _
b10 ^
b1000000 V
b1 U
b100 T
b10 S
b0 R
b1000 B
b100 A
b1001 @
b110 ?
b111 >
b101 =
b11 <
b1 ;
b0 :
b10 9
b1010 8
b1 7
b11 6
b10 5
b0 '
b1 &
b11 %
b10 $
$end
#0
$dumpvars
bx q
bx p
bx o
bx n
bx m
bx l
bx k
b0 j
b0 i
b0 h
b0 g
bx f
b0 e
b0 d
bx ]
b0 \
b0 [
b0 Z
b0 Y
0X
b0 W
b0 Q
b1 P
0O
xN
b0 M
b0 L
b0 K
b0 J
b0 I
b0 H
b0 G
0F
b1 E
bx D
0C
x4
b0 3
b0 2
bx 1
x0
x/
b0 .
0-
b0 ,
0+
b0 *
0)
b0 (
x#
x"
x!
$end
#5000
b0 ]
b0 k
00
1/
b1000000 W
04
0"
0#
1!
0N
1)
#10000
0)
#15000
1)
#20000
0)
#25000
1)
#30000
0)
#35000
1)
#40000
0)
#45000
1)
#50000
0)
b1 l
b0 m
#55000
b100001 G
b100001 *
b100001 .
1+
1)
#60000
0)
#65000
1-
b1 3
b100001 H
1)
#70000
0)
#75000
0-
b1 K
1F
b100001 I
1)
#80000
0)
#85000
b10 P
0F
1)
#90000
0)
#95000
1N
b11 P
b100100000000000010010000000000001001000000000000100100000000 J
b100100000000000010010000000000001001000000000000100100000000 Q
1)
#100000
0)
#105000
b1 Z
0!
14
b100100000000000010010000000000001001000000000000100100000000 Y
b100 P
0N
1)
#110000
0)
#115000
1X
1)
#120000
0)
#125000
b111111 W
0X
b1001000000000000100100000000000010010000000000001001000000000 Y
1#
1)
#130000
0)
#135000
1X
0#
1)
#140000
0)
#145000
b111110 W
0X
b10010000000000001001000000000000100100000000000010010000000000 Y
1#
1)
#150000
0)
#155000
1X
0#
1)
#160000
0)
#165000
b111101 W
0X
b100100000000000010010000000000001001000000000000100100000000000 Y
1#
1)
#170000
0)
#175000
1X
0#
1)
#180000
0)
#185000
b111100 W
0X
b1001000000000000100100000000000010010000000000001001000000000000 Y
1#
1)
#190000
0)
#195000
1X
1"
0#
1)
#200000
0)
#205000
b111011 W
0X
b10000000000001001000000000000100100000000000010010000000000000 Y
1#
1)
#210000
0)
#215000
1X
0"
0#
1)
#220000
0)
#225000
b111010 W
0X
b100000000000010010000000000001001000000000000100100000000000000 Y
1#
1)
#230000
0)
#235000
1X
0#
1)
#240000
0)
#245000
b111001 W
0X
b1000000000000100100000000000010010000000000001001000000000000000 Y
1#
1)
#250000
0)
#255000
1X
1"
0#
1)
#260000
0)
#265000
b111000 W
0X
b1001000000000000100100000000000010010000000000000000 Y
1#
1)
#270000
0)
#275000
1X
0"
0#
1)
#280000
0)
#285000
b110111 W
0X
b10010000000000001001000000000000100100000000000000000 Y
1#
1)
#290000
0)
#295000
1X
0#
1)
#300000
0)
#305000
b110110 W
0X
b100100000000000010010000000000001001000000000000000000 Y
1#
1)
#310000
0)
#315000
1X
0#
1)
#320000
0)
#325000
b110101 W
0X
b1001000000000000100100000000000010010000000000000000000 Y
1#
1)
#330000
0)
#335000
1X
0#
1)
#340000
0)
#345000
b110100 W
0X
b10010000000000001001000000000000100100000000000000000000 Y
1#
1)
#350000
0)
#355000
1X
0#
1)
#360000
0)
#365000
b110011 W
0X
b100100000000000010010000000000001001000000000000000000000 Y
1#
1)
#370000
0)
#375000
1X
0#
1)
#380000
0)
#385000
b110010 W
0X
b1001000000000000100100000000000010010000000000000000000000 Y
1#
1)
#390000
0)
#395000
1X
0#
1)
#400000
0)
#405000
b110001 W
0X
b10010000000000001001000000000000100100000000000000000000000 Y
1#
1)
#410000
0)
#415000
1X
0#
1)
#420000
0)
#425000
b110000 W
0X
b100100000000000010010000000000001001000000000000000000000000 Y
1#
1)
#430000
0)
#435000
1X
0#
1)
#440000
0)
#445000
b101111 W
0X
b1001000000000000100100000000000010010000000000000000000000000 Y
1#
1)
#450000
0)
#455000
1X
0#
1)
#460000
0)
#465000
b101110 W
0X
b10010000000000001001000000000000100100000000000000000000000000 Y
1#
1)
#470000
0)
#475000
1X
0#
1)
#480000
0)
#485000
b101101 W
0X
b100100000000000010010000000000001001000000000000000000000000000 Y
1#
1)
#490000
0)
#495000
1X
0#
1)
#500000
0)
#505000
b101100 W
0X
b1001000000000000100100000000000010010000000000000000000000000000 Y
1#
1)
#510000
0)
#515000
1X
1"
0#
1)
#520000
0)
#525000
b101011 W
0X
b10000000000001001000000000000100100000000000000000000000000000 Y
1#
1)
#530000
0)
#535000
1X
0"
0#
1)
#540000
0)
#545000
b101010 W
0X
b100000000000010010000000000001001000000000000000000000000000000 Y
1#
1)
#550000
0)
#555000
1X
0#
1)
#560000
0)
#565000
b101001 W
0X
b1000000000000100100000000000010010000000000000000000000000000000 Y
1#
1)
#570000
0)
#575000
1X
1"
0#
1)
#580000
0)
#585000
b101000 W
0X
b1001000000000000100100000000000000000000000000000000 Y
1#
1)
#590000
0)
#595000
1X
0"
0#
1)
#600000
0)
#605000
b100111 W
0X
b10010000000000001001000000000000000000000000000000000 Y
1#
1)
#610000
0)
#615000
1X
0#
1)
#620000
0)
#625000
b100110 W
0X
b100100000000000010010000000000000000000000000000000000 Y
1#
1)
#630000
0)
#635000
1X
0#
1)
#640000
0)
#645000
b100101 W
0X
b1001000000000000100100000000000000000000000000000000000 Y
1#
1)
#650000
0)
#655000
1X
0#
1)
#660000
0)
#665000
b100100 W
0X
b10010000000000001001000000000000000000000000000000000000 Y
1#
1)
#670000
0)
#675000
1X
0#
1)
#680000
0)
#685000
b100011 W
0X
b100100000000000010010000000000000000000000000000000000000 Y
1#
1)
#690000
0)
#695000
1X
0#
1)
#700000
0)
#705000
b100010 W
0X
b1001000000000000100100000000000000000000000000000000000000 Y
1#
1)
#710000
0)
#715000
1X
0#
1)
#720000
0)
#725000
b100001 W
0X
b10010000000000001001000000000000000000000000000000000000000 Y
1#
1)
#730000
0)
#735000
1X
0#
1)
#740000
0)
#745000
b100000 W
0X
b100100000000000010010000000000000000000000000000000000000000 Y
1#
1)
#750000
0)
#755000
1X
0#
1)
#760000
0)
#765000
b11111 W
0X
b1001000000000000100100000000000000000000000000000000000000000 Y
1#
1)
#770000
0)
#775000
1X
0#
1)
#780000
0)
#785000
b11110 W
0X
b10010000000000001001000000000000000000000000000000000000000000 Y
1#
1)
#790000
0)
#795000
1X
0#
1)
#800000
0)
#805000
b11101 W
0X
b100100000000000010010000000000000000000000000000000000000000000 Y
1#
1)
#810000
0)
#815000
1X
0#
1)
#820000
0)
#825000
b11100 W
0X
b1001000000000000100100000000000000000000000000000000000000000000 Y
1#
1)
#830000
0)
#835000
1X
1"
0#
1)
#840000
0)
#845000
b11011 W
0X
b10000000000001001000000000000000000000000000000000000000000000 Y
1#
1)
#850000
0)
#855000
1X
0"
0#
1)
#860000
0)
#865000
b11010 W
0X
b100000000000010010000000000000000000000000000000000000000000000 Y
1#
1)
#870000
0)
#875000
1X
0#
1)
#880000
0)
#885000
b11001 W
0X
b1000000000000100100000000000000000000000000000000000000000000000 Y
1#
1)
#890000
0)
#895000
1X
1"
0#
1)
#900000
0)
#905000
b11000 W
0X
b1001000000000000000000000000000000000000000000000000 Y
1#
1)
#910000
0)
#915000
1X
0"
0#
1)
#920000
0)
#925000
b10111 W
0X
b10010000000000000000000000000000000000000000000000000 Y
1#
1)
#930000
0)
#935000
1X
0#
1)
#940000
0)
#945000
b10110 W
0X
b100100000000000000000000000000000000000000000000000000 Y
1#
1)
#950000
0)
#955000
1X
0#
1)
#960000
0)
#965000
b10101 W
0X
b1001000000000000000000000000000000000000000000000000000 Y
1#
1)
#970000
0)
#975000
1X
0#
1)
#980000
0)
#985000
b10100 W
0X
b10010000000000000000000000000000000000000000000000000000 Y
1#
1)
#990000
0)
#995000
1X
0#
1)
#1000000
0)
#1005000
b10011 W
0X
b100100000000000000000000000000000000000000000000000000000 Y
1#
1)
#1010000
0)
#1015000
1X
0#
1)
#1020000
0)
#1025000
b10010 W
0X
b1001000000000000000000000000000000000000000000000000000000 Y
1#
1)
#1030000
0)
#1035000
1X
0#
1)
#1040000
0)
#1045000
b10001 W
0X
b10010000000000000000000000000000000000000000000000000000000 Y
1#
1)
#1050000
0)
#1055000
1X
0#
1)
#1060000
0)
#1065000
b10000 W
0X
b100100000000000000000000000000000000000000000000000000000000 Y
1#
1)
#1070000
0)
#1075000
1X
0#
1)
#1080000
0)
#1085000
b1111 W
0X
b1001000000000000000000000000000000000000000000000000000000000 Y
1#
1)
#1090000
0)
#1095000
1X
0#
1)
#1100000
0)
#1105000
b1110 W
0X
b10010000000000000000000000000000000000000000000000000000000000 Y
1#
1)
#1110000
0)
#1115000
1X
0#
1)
#1120000
0)
#1125000
b1101 W
0X
b100100000000000000000000000000000000000000000000000000000000000 Y
1#
1)
#1130000
0)
#1135000
1X
0#
1)
#1140000
0)
#1145000
b1100 W
0X
b1001000000000000000000000000000000000000000000000000000000000000 Y
1#
1)
#1150000
0)
#1155000
1X
1"
0#
1)
#1160000
0)
#1165000
b1011 W
0X
b10000000000000000000000000000000000000000000000000000000000000 Y
1#
1)
#1170000
0)
#1175000
1X
0"
0#
1)
#1180000
0)
#1185000
b1010 W
0X
b100000000000000000000000000000000000000000000000000000000000000 Y
1#
1)
#1190000
0)
#1195000
1X
0#
1)
#1200000
0)
#1205000
b1001 W
0X
b1000000000000000000000000000000000000000000000000000000000000000 Y
1#
1)
#1210000
0)
#1215000
1X
1"
0#
1)
#1220000
0)
#1225000
b1000 W
0X
b0 Y
1#
1)
#1230000
0)
#1235000
1X
0"
0#
1)
#1240000
0)
#1245000
b111 W
0X
1#
1)
#1250000
0)
#1255000
1X
0#
1)
#1260000
0)
#1265000
b110 W
0X
1#
1)
#1270000
0)
#1275000
1X
0#
1)
#1280000
0)
#1285000
b101 W
0X
1#
1)
#1290000
0)
#1295000
1X
0#
1)
#1300000
0)
#1305000
b100 W
0X
1#
1)
#1310000
0)
#1315000
1X
0#
1)
#1320000
0)
#1325000
b11 W
0X
1#
1)
#1330000
0)
#1335000
1X
0#
1)
#1340000
0)
#1345000
b10 W
0X
1#
1)
#1350000
0)
#1355000
1X
0#
1)
#1360000
0)
#1365000
b1 W
0X
1#
1)
#1370000
0)
#1375000
1X
0#
1)
#1380000
0)
#1385000
b10 Z
b0 W
0X
1#
1)
#1390000
0)
#1395000
b0 Z
04
1!
0#
1)
#1400000
0)
#1405000
b1000000 W
b1 P
1)
