TESTBENCH/sims/state.vcd
$date
	Mon Jun 22 13:51:36 2026
$end
$version
	Icarus Verilog
$end
$timescale
	1ps
$end
$scope module tb_state_machine $end
$var wire 1 ! load $end
$var wire 1 " d_out $end
$var wire 1 # clk_out $end
$var parameter 2 $ CTRL_ASCII $end
$var parameter 2 % CTRL_BLINK $end
$var parameter 2 & CTRL_BRIGHTNESS $end
$var parameter 2 ' CTRL_ENABLE $end
$var reg 32 ( ascii_data [31:0] $end
$var reg 1 ) clk $end
$var reg 8 * ctrl_reg [7:0] $end
$var reg 1 + display_kick $end
$scope module uut $end
$var wire 32 , ascii_data [31:0] $end
$var wire 1 ) clk $end
$var wire 1 - cmd_valid $end
$var wire 8 . ctrl_reg [7:0] $end
$var wire 1 / ready $end
$var wire 1 0 packet_valid $end
$var wire 64 1 packet [63:0] $end
$var wire 1 ! load $end
$var wire 1 " d_out $end
$var wire 2 2 cmd_op [1:0] $end
$var wire 2 3 cmd_arg [1:0] $end
$var wire 1 # clk_out $end
$var wire 1 4 busy $end
$var parameter 2 5 ASCII $end
$var parameter 2 6 BLINK_IDX $end
$var parameter 2 7 BRIGHTNESS $end
$var parameter 4 8 BRIGHTNESS_CHANGE $end
$var parameter 4 9 DECODE_OFF $end
$var parameter 2 : ENABLE $end
$var parameter 4 ; IDLE $end
$var parameter 4 < INIT_BUSY $end
$var parameter 4 = INIT_WAIT $end
$var parameter 4 > SEND_CTRL_REG $end
$var parameter 4 ? START_SEND $end
$var parameter 4 @ START_TRANSLATION $end
$var parameter 4 A STEP_ROW $end
$var parameter 4 B TRANSLATION $end
$var parameter 4 C WAIT_SEND_SIMPLE $end
$var parameter 4 D WAIT_TRANS $end
$var parameter 4 E WAIT_TRANS_BUSY $end
$var parameter 4 F WAIT_TRANS_DONE $end
$var reg 1 G abort $end
$var reg 2 H blink_idx [1:0] $end
$var reg 2 I brightness [1:0] $end
$var reg 1 J cmd_pend $end
$var reg 8 K ctrl_s1 [7:0] $end
$var reg 8 L ctrl_s2 [7:0] $end
$var reg 8 M ctrl_s3 [7:0] $end
$var reg 64 N data [63:0] $end
$var reg 2 O init_idx [1:0] $end
$var reg 2 P pend_arg [1:0] $end
$var reg 2 Q pend_op [1:0] $end
$var reg 4 R row_idx [3:0] $end
$var reg 1 S start_fifo $end
$var reg 1 T start_trans $end
$var reg 4 U state [3:0] $end
$scope module fifo $end
$var wire 1 G abort $end
$var wire 1 ) clk_in $end
$var wire 64 V data [63:0] $end
$var wire 1 S start $end
$var parameter 2 W IDLE $end
$var parameter 2 X LATCH $end
$var parameter 32 Y N $end
$var parameter 2 Z SHIFT $end
$var parameter 64 [ TOTAL_BITS $end
$var reg 7 \ bit_cnt [6:0] $end
$var reg 1 4 busy $end
$var reg 1 # clk_out $end
$var reg 1 " d_out $end
$var reg 1 ! load $end
$var reg 1 ] phase $end
$var reg 64 ^ shreg [63:0] $end
$var reg 2 _ state [1:0] $end
$upscope $end
$scope module trans $end
$var wire 28 ` ascii_data [27:0] $end
$var wire 1 ) clk $end
$var wire 3 a row_idx [2:0] $end
$var wire 1 T start $end
$var wire 8 b row_data [7:0] $end
$var parameter 3 c DONE $end
$var parameter 3 d FETCH $end
$var parameter 3 e IDLE $end
$var parameter 32 f N $end
$var parameter 3 g STORE $end
$var parameter 3 h WAIT_ROM $end
$var reg 7 i ascii_code [6:0] $end
$var reg 3 j idx [2:0] $end
$var reg 1 0 packet_valid $end
$var reg 1 / ready $end
$var reg 64 k row_packet [63:0] $end
$var reg 3 l state [2:0] $end
$scope module ascii_rom $end
$var wire 7 m ascii_code [6:0] $end
$var wire 1 ) clk $end
$var wire 3 n row_index [2:0] $end
$var reg 64 o full_char [63:0] $end
$var reg 8 p row_data [7:0] $end
$upscope $end
$upscope $end
$upscope $end
$scope task display_cmd $end
$var reg 2 q arg [1:0] $end
$var reg 2 r op [1:0] $end
$upscope $end
$scope task display_send $end
$var reg 7 s c0 [6:0] $end
$var reg 7 t c1 [6:0] $end
$var reg 7 u c2 [6:0] $end
$var reg 7 v c3 [6:0] $end
$upscope $end
$upscope $end
$enddefinitions $end
$comment Show the parameter values. $end
$dumpall
b11 h
b100 g
b100 f
b0 e
b1 d
b10 c
b1000000 [
b1 Z
b100 Y
b10 X
b0 W
b1110 F
b1101 E
b1000 D
b100 C
b1001 B
b110 A
b111 @
b101 ?
b11 >
b1100 =
b1011 <
b1 ;
b0 :
b10 9
b1010 8
b1 7
b11 6
b10 5
b0 '
b1 &
b11 %
b10 $
$end
#0
$dumpvars
bx v
bx u
bx t
bx s
bx r
bx q
bx p
b0 o
b0 n
b0 m
b0 l
bx k
b0 j
b0 i
bx b
b0 a
b0 `
b0 _
b0 ^
0]
b0 \
b0 V
b1 U
0T
xS
b0 R
b0 Q
b0 P
b0 O
b0 N
b0 M
b0 L
b0 K
0J
b1 I
bx H
0G
x4
b0 3
b0 2
bx 1
x0
x/
b0 .
0-
b0 ,
0+
b0 *
0)
b0 (
x#
x"
x!
$end
#5000
b0 b
b0 p
00
1/
b1000000 \
04
0"
0#
1!
0S
1)
#10000
0)
#15000
1)
#20000
0)
#25000
1)
#30000
0)
#35000
1)
#40000
0)
#45000
1)
#50000
0)
b1 q
b0 r
#55000
b100001 K
b100001 *
b100001 .
1+
1)
#60000
0)
#65000
1-
b1 3
b100001 L
1)
#70000
0)
#75000
0-
b1 P
1J
b100001 M
1)
#80000
0)
#85000
b10 U
0J
1)
#90000
0)
#95000
b1011 U
1S
b110000000001000011000000000100001100000000010000110000000001 N
b110000000001000011000000000100001100000000010000110000000001 V
1)
#100000
0)
#105000
b1 _
0!
14
b110000000001000011000000000100001100000000010000110000000001 ^
b1100 U
0S
1)
#110000
0)
#115000
1]
1)
#120000
0)
#125000
b111111 \
0]
b1100000000010000110000000001000011000000000100001100000000010 ^
1#
1)
#130000
0)
#135000
1]
0#
1)
#140000
0)
#145000
b111110 \
0]
b11000000000100001100000000010000110000000001000011000000000100 ^
1#
1)
#150000
0)
#155000
1]
0#
1)
#160000
0)
#165000
b111101 \
0]
b110000000001000011000000000100001100000000010000110000000001000 ^
1#
1)
#170000
0)
#175000
1]
0#
1)
#180000
0)
#185000
b111100 \
0]
b1100000000010000110000000001000011000000000100001100000000010000 ^
1#
1)
#190000
0)
#195000
1]
1"
0#
1)
#200000
0)
#205000
b111011 \
0]
b1000000000100001100000000010000110000000001000011000000000100000 ^
1#
1)
#210000
0)
#215000
1]
0#
1)
#220000
0)
#225000
b111010 \
0]
b1000011000000000100001100000000010000110000000001000000 ^
1#
1)
#230000
0)
#235000
1]
0"
0#
1)
#240000
0)
#245000
b111001 \
0]
b10000110000000001000011000000000100001100000000010000000 ^
1#
1)
#250000
0)
#255000
1]
0#
1)
#260000
0)
#265000
b111000 \
0]
b100001100000000010000110000000001000011000000000100000000 ^
1#
1)
#270000
0)
#275000
1]
0#
1)
#280000
0)
#285000
b110111 \
0]
b1000011000000000100001100000000010000110000000001000000000 ^
1#
1)
#290000
0)
#295000
1]
0#
1)
#300000
0)
#305000
b110110 \
0]
b10000110000000001000011000000000100001100000000010000000000 ^
1#
1)
#310000
0)
#315000
1]
0#
1)
#320000
0)
#325000
b110101 \
0]
b100001100000000010000110000000001000011000000000100000000000 ^
1#
1)
#330000
0)
#335000
1]
0#
1)
#340000
0)
#345000
b110100 \
0]
b1000011000000000100001100000000010000110000000001000000000000 ^
1#
1)
#350000
0)
#355000
1]
0#
1)
#360000
0)
#365000
b110011 \
0]
b10000110000000001000011000000000100001100000000010000000000000 ^
1#
1)
#370000
0)
#375000
1]
0#
1)
#380000
0)
#385000
b110010 \
0]
b100001100000000010000110000000001000011000000000100000000000000 ^
1#
1)
#390000
0)
#395000
1]
0#
1)
#400000
0)
#405000
b110001 \
0]
b1000011000000000100001100000000010000110000000001000000000000000 ^
1#
1)
#410000
0)
#415000
1]
1"
0#
1)
#420000
0)
#425000
b110000 \
0]
b110000000001000011000000000100001100000000010000000000000000 ^
1#
1)
#430000
0)
#435000
1]
0"
0#
1)
#440000
0)
#445000
b101111 \
0]
b1100000000010000110000000001000011000000000100000000000000000 ^
1#
1)
#450000
0)
#455000
1]
0#
1)
#460000
0)
#465000
b101110 \
0]
b11000000000100001100000000010000110000000001000000000000000000 ^
1#
1)
#470000
0)
#475000
1]
0#
1)
#480000
0)
#485000
b101101 \
0]
b110000000001000011000000000100001100000000010000000000000000000 ^
1#
1)
#490000
0)
#495000
1]
0#
1)
#500000
0)
#505000
b101100 \
0]
b1100000000010000110000000001000011000000000100000000000000000000 ^
1#
1)
#510000
0)
#515000
1]
1"
0#
1)
#520000
0)
#525000
b101011 \
0]
b1000000000100001100000000010000110000000001000000000000000000000 ^
1#
1)
#530000
0)
#535000
1]
0#
1)
#540000
0)
#545000
b101010 \
0]
b1000011000000000100001100000000010000000000000000000000 ^
1#
1)
#550000
0)
#555000
1]
0"
0#
1)
#560000
0)
#565000
b101001 \
0]
b10000110000000001000011000000000100000000000000000000000 ^
1#
1)
#570000
0)
#575000
1]
0#
1)
#580000
0)
#585000
b101000 \
0]
b100001100000000010000110000000001000000000000000000000000 ^
1#
1)
#590000
0)
#595000
1]
0#
1)
#600000
0)
#605000
b100111 \
0]
b1000011000000000100001100000000010000000000000000000000000 ^
1#
1)
#610000
0)
#615000
1]
0#
1)
#620000
0)
#625000
b100110 \
0]
b10000110000000001000011000000000100000000000000000000000000 ^
1#
1)
#630000
0)
#635000
1]
0#
1)
#640000
0)
#645000
b100101 \
0]
b100001100000000010000110000000001000000000000000000000000000 ^
1#
1)
#650000
0)
#655000
1]
0#
1)
#660000
0)
#665000
b100100 \
0]
b1000011000000000100001100000000010000000000000000000000000000 ^
1#
1)
#670000
0)
#675000
1]
0#
1)
#680000
0)
#685000
b100011 \
0]
b10000110000000001000011000000000100000000000000000000000000000 ^
1#
1)
#690000
0)
#695000
1]
0#
1)
#700000
0)
#705000
b100010 \
0]
b100001100000000010000110000000001000000000000000000000000000000 ^
1#
1)
#710000
0)
#715000
1]
0#
1)
#720000
0)
#725000
b100001 \
0]
b1000011000000000100001100000000010000000000000000000000000000000 ^
1#
1)
#730000
0)
#735000
1]
1"
0#
1)
#740000
0)
#745000
b100000 \
0]
b110000000001000011000000000100000000000000000000000000000000 ^
1#
1)
#750000
0)
#755000
1]
0"
0#
1)
#760000
0)
#765000
b11111 \
0]
b1100000000010000110000000001000000000000000000000000000000000 ^
1#
1)
#770000
0)
#775000
1]
0#
1)
#780000
0)
#785000
b11110 \
0]
b11000000000100001100000000010000000000000000000000000000000000 ^
1#
1)
#790000
0)
#795000
1]
0#
1)
#800000
0)
#805000
b11101 \
0]
b110000000001000011000000000100000000000000000000000000000000000 ^
1#
1)
#810000
0)
#815000
1]
0#
1)
#820000
0)
#825000
b11100 \
0]
b1100000000010000110000000001000000000000000000000000000000000000 ^
1#
1)
#830000
0)
#835000
1]
1"
0#
1)
#840000
0)
#845000
b11011 \
0]
b1000000000100001100000000010000000000000000000000000000000000000 ^
1#
1)
#850000
0)
#855000
1]
0#
1)
#860000
0)
#865000
b11010 \
0]
b1000011000000000100000000000000000000000000000000000000 ^
1#
1)
#870000
0)
#875000
1]
0"
0#
1)
#880000
0)
#885000
b11001 \
0]
b10000110000000001000000000000000000000000000000000000000 ^
1#
1)
#890000
0)
#895000
1]
0#
1)
#900000
0)
#905000
b11000 \
0]
b100001100000000010000000000000000000000000000000000000000 ^
1#
1)
#910000
0)
#915000
1]
0#
1)
#920000
0)
#925000
b10111 \
0]
b1000011000000000100000000000000000000000000000000000000000 ^
1#
1)
#930000
0)
#935000
1]
0#
1)
#940000
0)
#945000
b10110 \
0]
b10000110000000001000000000000000000000000000000000000000000 ^
1#
1)
#950000
0)
#955000
1]
0#
1)
#960000
0)
#965000
b10101 \
0]
b100001100000000010000000000000000000000000000000000000000000 ^
1#
1)
#970000
0)
#975000
1]
0#
1)
#980000
0)
#985000
b10100 \
0]
b1000011000000000100000000000000000000000000000000000000000000 ^
1#
1)
#990000
0)
#995000
1]
0#
1)
#1000000
0)
#1005000
b10011 \
0]
b10000110000000001000000000000000000000000000000000000000000000 ^
1#
1)
#1010000
0)
#1015000
1]
0#
1)
#1020000
0)
#1025000
b10010 \
0]
b100001100000000010000000000000000000000000000000000000000000000 ^
1#
1)
#1030000
0)
#1035000
1]
0#
1)
#1040000
0)
#1045000
b10001 \
0]
b1000011000000000100000000000000000000000000000000000000000000000 ^
1#
1)
#1050000
0)
#1055000
1]
1"
0#
1)
#1060000
0)
#1065000
b10000 \
0]
b110000000001000000000000000000000000000000000000000000000000 ^
1#
1)
#1070000
0)
#1075000
1]
0"
0#
1)
#1080000
0)
#1085000
b1111 \
0]
b1100000000010000000000000000000000000000000000000000000000000 ^
1#
1)
#1090000
0)
#1095000
1]
0#
1)
#1100000
0)
#1105000
b1110 \
0]
b11000000000100000000000000000000000000000000000000000000000000 ^
1#
1)
#1110000
0)
#1115000
1]
0#
1)
#1120000
0)
#1125000
b1101 \
0]
b110000000001000000000000000000000000000000000000000000000000000 ^
1#
1)
#1130000
0)
#1135000
1]
0#
1)
#1140000
0)
#1145000
b1100 \
0]
b1100000000010000000000000000000000000000000000000000000000000000 ^
1#
1)
#1150000
0)
#1155000
1]
1"
0#
1)
#1160000
0)
#1165000
b1011 \
0]
b1000000000100000000000000000000000000000000000000000000000000000 ^
1#
1)
#1170000
0)
#1175000
1]
0#
1)
#1180000
0)
#1185000
b1010 \
0]
b1000000000000000000000000000000000000000000000000000000 ^
1#
1)
#1190000
0)
#1195000
1]
0"
0#
1)
#1200000
0)
#1205000
b1001 \
0]
b10000000000000000000000000000000000000000000000000000000 ^
1#
1)
#1210000
0)
#1215000
1]
0#
1)
#1220000
0)
#1225000
b1000 \
0]
b100000000000000000000000000000000000000000000000000000000 ^
1#
1)
#1230000
0)
#1235000
1]
0#
1)
#1240000
0)
#1245000
b111 \
0]
b1000000000000000000000000000000000000000000000000000000000 ^
1#
1)
#1250000
0)
#1255000
1]
0#
1)
#1260000
0)
#1265000
b110 \
0]
b10000000000000000000000000000000000000000000000000000000000 ^
1#
1)
#1270000
0)
#1275000
1]
0#
1)
#1280000
0)
#1285000
b101 \
0]
b100000000000000000000000000000000000000000000000000000000000 ^
1#
1)
#1290000
0)
#1295000
1]
0#
1)
#1300000
0)
#1305000
b100 \
0]
b1000000000000000000000000000000000000000000000000000000000000 ^
1#
1)
#1310000
0)
#1315000
1]
0#
1)
#1320000
0)
#1325000
b11 \
0]
b10000000000000000000000000000000000000000000000000000000000000 ^
1#
1)
#1330000
0)
#1335000
1]
0#
1)
#1340000
0)
#1345000
b10 \
0]
b100000000000000000000000000000000000000000000000000000000000000 ^
1#
1)
#1350000
0)
#1355000
1]
0#
1)
#1360000
0)
#1365000
b1 \
0]
b1000000000000000000000000000000000000000000000000000000000000000 ^
1#
1)
#1370000
0)
#1375000
1]
1"
0#
1)
#1380000
0)
#1385000
b10 _
b0 \
0]
b0 ^
1#
1)
#1390000
0)
#1395000
b0 _
04
1!
0#
1)
#1400000
0)
#1405000
b1000000 \
0"
b10 U
b1 O
1)
#1410000
0)
#1415000
b1011 U
1S
b101100000111000010110000011100001011000001110000101100000111 N
b101100000111000010110000011100001011000001110000101100000111 V
1)
#1420000
0)
#1425000
b1 _
0!
14
b101100000111000010110000011100001011000001110000101100000111 ^
b1100 U
0S
1)
#1430000
0)
#1435000
1]
1)
#1440000
0)
#1445000
b111111 \
0]
b1011000001110000101100000111000010110000011100001011000001110 ^
1#
1)
#1450000
0)
#1455000
1]
0#
1)
#1460000
0)
#1465000
b111110 \
0]
b10110000011100001011000001110000101100000111000010110000011100 ^
1#
1)
#1470000
0)
#1475000
1]
0#
1)
#1480000
0)
#1485000
b111101 \
0]
b101100000111000010110000011100001011000001110000101100000111000 ^
1#
1)
#1490000
0)
#1495000
1]
0#
1)
#1500000
0)
#1505000
b111100 \
0]
b1011000001110000101100000111000010110000011100001011000001110000 ^
1#
1)
#1510000
0)
#1515000
1]
1"
0#
1)
#1520000
0)
#1525000
b111011 \
0]
b110000011100001011000001110000101100000111000010110000011100000 ^
1#
1)
#1530000
0)
#1535000
1]
0"
0#
1)
#1540000
0)
#1545000
b111010 \
0]
b1100000111000010110000011100001011000001110000101100000111000000 ^
1#
1)
#1550000
0)
#1555000
1]
1"
0#
1)
#1560000
0)
#1565000
b111001 \
0]
b1000001110000101100000111000010110000011100001011000001110000000 ^
1#
1)
#1570000
0)
#1575000
1]
0#
1)
#1580000
0)
#1585000
b111000 \
0]
b11100001011000001110000101100000111000010110000011100000000 ^
1#
1)
#1590000
0)
#1595000
1]
0"
0#
1)
#1600000
0)
#1605000
b110111 \
0]
b111000010110000011100001011000001110000101100000111000000000 ^
1#
1)
#1610000
0)
#1615000
1]
0#
1)
#1620000
0)
#1625000
b110110 \
0]
b1110000101100000111000010110000011100001011000001110000000000 ^
1#
1)
#1630000
0)
#1635000
1]
0#
1)
#1640000
0)
#1645000
b110101 \
0]
b11100001011000001110000101100000111000010110000011100000000000 ^
1#
1)
#1650000
0)
#1655000
1]
0#
1)
#1660000
0)
#1665000
b110100 \
0]
b111000010110000011100001011000001110000101100000111000000000000 ^
1#
1)
#1670000
0)
#1675000
1]
0#
1)
#1680000
0)
#1685000
b110011 \
0]
b1110000101100000111000010110000011100001011000001110000000000000 ^
1#
1)
#1690000
0)
#1695000
1]
1"
0#
1)
#1700000
0)
#1705000
b110010 \
0]
b1100001011000001110000101100000111000010110000011100000000000000 ^
1#
1)
#1710000
0)
#1715000
1]
0#
1)
#1720000
0)
#1725000
b110001 \
0]
b1000010110000011100001011000001110000101100000111000000000000000 ^
1#
1)
#1730000
0)
#1735000
1]
0#
1)
#1740000
0)
#1745000
b110000 \
0]
b101100000111000010110000011100001011000001110000000000000000 ^
1#
1)
#1750000
0)
#1755000
1]
0"
0#
1)
#1760000
0)
#1765000
b101111 \
0]
b1011000001110000101100000111000010110000011100000000000000000 ^
1#
1)
#1770000
0)
#1775000
1]
0#
1)
#1780000
0)
#1785000
b101110 \
0]
b10110000011100001011000001110000101100000111000000000000000000 ^
1#
1)
#1790000
0)
#1795000
1]
0#
1)
#1800000
0)
#1805000
b101101 \
0]
b101100000111000010110000011100001011000001110000000000000000000 ^
1#
1)
#1810000
0)
#1815000
1]
0#
1)
#1820000
0)
#1825000
b101100 \
0]
b1011000001110000101100000111000010110000011100000000000000000000 ^
1#
1)
#1830000
0)
#1835000
1]
1"
0#
1)
#1840000
0)
#1845000
b101011 \
0]
b110000011100001011000001110000101100000111000000000000000000000 ^
1#
1)
#1850000
0)
#1855000
1]
0"
0#
1)
#1860000
0)
#1865000
b101010 \
0]
b1100000111000010110000011100001011000001110000000000000000000000 ^
1#
1)
#1870000
0)
#1875000
1]
1"
0#
1)
#1880000
0)
#1885000
b101001 \
0]
b1000001110000101100000111000010110000011100000000000000000000000 ^
1#
1)
#1890000
0)
#1895000
1]
0#
1)
#1900000
0)
#1905000
b101000 \
0]
b11100001011000001110000101100000111000000000000000000000000 ^
1#
1)
#1910000
0)
#1915000
1]
0"
0#
1)
#1920000
0)
#1925000
b100111 \
0]
b111000010110000011100001011000001110000000000000000000000000 ^
1#
1)
#1930000
0)
#1935000
1]
0#
1)
#1940000
0)
#1945000
b100110 \
0]
b1110000101100000111000010110000011100000000000000000000000000 ^
1#
1)
#1950000
0)
#1955000
1]
0#
1)
#1960000
0)
#1965000
b100101 \
0]
b11100001011000001110000101100000111000000000000000000000000000 ^
1#
1)
#1970000
0)
#1975000
1]
0#
1)
#1980000
0)
#1985000
b100100 \
0]
b111000010110000011100001011000001110000000000000000000000000000 ^
1#
1)
#1990000
0)
#1995000
1]
0#
1)
#2000000
0)
#2005000
b100011 \
0]
b1110000101100000111000010110000011100000000000000000000000000000 ^
1#
1)
#2010000
0)
#2015000
1]
1"
0#
1)
#2020000
0)
#2025000
b100010 \
0]
b1100001011000001110000101100000111000000000000000000000000000000 ^
1#
1)
#2030000
0)
#2035000
1]
0#
1)
#2040000
0)
#2045000
b100001 \
0]
b1000010110000011100001011000001110000000000000000000000000000000 ^
1#
1)
#2050000
0)
#2055000
1]
0#
1)
#2060000
0)
#2065000
b100000 \
0]
b101100000111000010110000011100000000000000000000000000000000 ^
1#
1)
#2070000
0)
#2075000
1]
0"
0#
1)
#2080000
0)
#2085000
b11111 \
0]
b1011000001110000101100000111000000000000000000000000000000000 ^
1#
1)
#2090000
0)
#2095000
1]
0#
1)
#2100000
0)
#2105000
b11110 \
0]
b10110000011100001011000001110000000000000000000000000000000000 ^
1#
1)
#2110000
0)
#2115000
1]
0#
1)
#2120000
0)
#2125000
b11101 \
0]
b101100000111000010110000011100000000000000000000000000000000000 ^
1#
1)
#2130000
0)
#2135000
1]
0#
1)
#2140000
0)
#2145000
b11100 \
0]
b1011000001110000101100000111000000000000000000000000000000000000 ^
1#
1)
#2150000
0)
#2155000
1]
1"
0#
1)
#2160000
0)
#2165000
b11011 \
0]
b110000011100001011000001110000000000000000000000000000000000000 ^
1#
1)
#2170000
0)
#2175000
1]
0"
0#
1)
#2180000
0)
#2185000
b11010 \
0]
b1100000111000010110000011100000000000000000000000000000000000000 ^
1#
1)
#2190000
0)
#2195000
1]
1"
0#
1)
#2200000
0)
#2205000
b11001 \
0]
b1000001110000101100000111000000000000000000000000000000000000000 ^
1#
1)
#2210000
0)
#2215000
1]
0#
1)
#2220000
0)
#2225000
b11000 \
0]
b11100001011000001110000000000000000000000000000000000000000 ^
1#
1)
#2230000
0)
#2235000
1]
0"
0#
1)
#2240000
0)
#2245000
b10111 \
0]
b111000010110000011100000000000000000000000000000000000000000 ^
1#
1)
#2250000
0)
#2255000
1]
0#
1)
#2260000
0)
#2265000
b10110 \
0]
b1110000101100000111000000000000000000000000000000000000000000 ^
1#
1)
#2270000
0)
#2275000
1]
0#
1)
#2280000
0)
#2285000
b10101 \
0]
b11100001011000001110000000000000000000000000000000000000000000 ^
1#
1)
#2290000
0)
#2295000
1]
0#
1)
#2300000
0)
#2305000
b10100 \
0]
b111000010110000011100000000000000000000000000000000000000000000 ^
1#
1)
#2310000
0)
#2315000
1]
0#
1)
#2320000
0)
#2325000
b10011 \
0]
b1110000101100000111000000000000000000000000000000000000000000000 ^
1#
1)
#2330000
0)
#2335000
1]
1"
0#
1)
#2340000
0)
#2345000
b10010 \
0]
b1100001011000001110000000000000000000000000000000000000000000000 ^
1#
1)
#2350000
0)
#2355000
1]
0#
1)
#2360000
0)
#2365000
b10001 \
0]
b1000010110000011100000000000000000000000000000000000000000000000 ^
1#
1)
#2370000
0)
#2375000
1]
0#
1)
#2380000
0)
#2385000
b10000 \
0]
b101100000111000000000000000000000000000000000000000000000000 ^
1#
1)
#2390000
0)
#2395000
1]
0"
0#
1)
#2400000
0)
#2405000
b1111 \
0]
b1011000001110000000000000000000000000000000000000000000000000 ^
1#
1)
#2410000
0)
#2415000
1]
0#
1)
#2420000
0)
#2425000
b1110 \
0]
b10110000011100000000000000000000000000000000000000000000000000 ^
1#
1)
#2430000
0)
#2435000
1]
0#
1)
#2440000
0)
#2445000
b1101 \
0]
b101100000111000000000000000000000000000000000000000000000000000 ^
1#
1)
#2450000
0)
#2455000
1]
0#
1)
#2460000
0)
#2465000
b1100 \
0]
b1011000001110000000000000000000000000000000000000000000000000000 ^
1#
1)
#2470000
0)
#2475000
1]
1"
0#
1)
#2480000
0)
#2485000
b1011 \
0]
b110000011100000000000000000000000000000000000000000000000000000 ^
1#
1)
#2490000
0)
#2495000
1]
0"
0#
1)
#2500000
0)
#2505000
b1010 \
0]
b1100000111000000000000000000000000000000000000000000000000000000 ^
1#
1)
#2510000
0)
#2515000
1]
1"
0#
1)
#2520000
0)
#2525000
b1001 \
0]
b1000001110000000000000000000000000000000000000000000000000000000 ^
1#
1)
#2530000
0)
#2535000
1]
0#
1)
#2540000
0)
#2545000
b1000 \
0]
b11100000000000000000000000000000000000000000000000000000000 ^
1#
1)
#2550000
0)
#2555000
1]
0"
0#
1)
#2560000
0)
#2565000
b111 \
0]
b111000000000000000000000000000000000000000000000000000000000 ^
1#
1)
#2570000
0)
#2575000
1]
0#
1)
#2580000
0)
#2585000
b110 \
0]
b1110000000000000000000000000000000000000000000000000000000000 ^
1#
1)
#2590000
0)
#2595000
1]
0#
1)
#2600000
0)
#2605000
b101 \
0]
b11100000000000000000000000000000000000000000000000000000000000 ^
1#
1)
#2610000
0)
#2615000
1]
0#
1)
#2620000
0)
#2625000
b100 \
0]
b111000000000000000000000000000000000000000000000000000000000000 ^
1#
1)
#2630000
0)
#2635000
1]
0#
1)
#2640000
0)
#2645000
b11 \
0]
b1110000000000000000000000000000000000000000000000000000000000000 ^
1#
1)
#2650000
0)
#2655000
1]
1"
0#
1)
#2660000
0)
#2665000
b10 \
0]
b1100000000000000000000000000000000000000000000000000000000000000 ^
1#
1)
#2670000
0)
#2675000
1]
0#
1)
#2680000
0)
#2685000
b1 \
0]
b1000000000000000000000000000000000000000000000000000000000000000 ^
1#
1)
#2690000
0)
#2695000
1]
0#
1)
#2700000
0)
#2705000
b10 _
b0 \
0]
b0 ^
1#
1)
#2710000
0)
#2715000
b0 _
04
1!
0#
1)
#2720000
0)
#2725000
b1000000 \
0"
b10 U
b10 O
1)
#2730000
0)
#2735000
b1011 U
1S
b100100000000000010010000000000001001000000000000100100000000 N
b100100000000000010010000000000001001000000000000100100000000 V
1)
#2740000
0)
#2745000
b1 _
0!
14
b100100000000000010010000000000001001000000000000100100000000 ^
b1100 U
0S
1)
#2750000
0)
#2755000
1]
1)
#2760000
0)
#2765000
b111111 \
0]
b1001000000000000100100000000000010010000000000001001000000000 ^
1#
1)
#2770000
0)
#2775000
1]
0#
1)
#2780000
0)
#2785000
b111110 \
0]
b10010000000000001001000000000000100100000000000010010000000000 ^
1#
1)
#2790000
0)
#2795000
1]
0#
1)
#2800000
0)
#2805000
b111101 \
0]
b100100000000000010010000000000001001000000000000100100000000000 ^
1#
1)
#2810000
0)
#2815000
1]
0#
1)
#2820000
0)
#2825000
b111100 \
0]
b1001000000000000100100000000000010010000000000001001000000000000 ^
1#
1)
#2830000
0)
#2835000
1]
1"
0#
1)
#2840000
0)
#2845000
b111011 \
0]
b10000000000001001000000000000100100000000000010010000000000000 ^
1#
1)
#2850000
0)
#2855000
1]
0"
0#
1)
#2860000
0)
#2865000
b111010 \
0]
b100000000000010010000000000001001000000000000100100000000000000 ^
1#
1)
#2870000
0)
#2875000
1]
0#
1)
#2880000
0)
#2885000
b111001 \
0]
b1000000000000100100000000000010010000000000001001000000000000000 ^
1#
1)
#2890000
0)
#2895000
1]
1"
0#
1)
#2900000
0)
#2905000
b111000 \
0]
b1001000000000000100100000000000010010000000000000000 ^
1#
1)
#2910000
0)
#2915000
1]
0"
0#
1)
#2920000
0)
#2925000
b110111 \
0]
b10010000000000001001000000000000100100000000000000000 ^
1#
1)
#2930000
0)
#2935000
1]
0#
1)
#2940000
0)
#2945000
b110110 \
0]
b100100000000000010010000000000001001000000000000000000 ^
1#
1)
#2950000
0)
#2955000
1]
0#
1)
#2960000
0)
#2965000
b110101 \
0]
b1001000000000000100100000000000010010000000000000000000 ^
1#
1)
#2970000
0)
#2975000
1]
0#
1)
#2980000
0)
#2985000
b110100 \
0]
b10010000000000001001000000000000100100000000000000000000 ^
1#
1)
#2990000
0)
#2995000
1]
0#
1)
#3000000
0)
#3005000
b110011 \
0]
b100100000000000010010000000000001001000000000000000000000 ^
1#
1)
#3010000
0)
#3015000
1]
0#
1)
#3020000
0)
#3025000
b110010 \
0]
b1001000000000000100100000000000010010000000000000000000000 ^
1#
1)
#3030000
0)
#3035000
1]
0#
1)
#3040000
0)
#3045000
b110001 \
0]
b10010000000000001001000000000000100100000000000000000000000 ^
1#
1)
#3050000
0)
#3055000
1]
0#
1)
#3060000
0)
#3065000
b110000 \
0]
b100100000000000010010000000000001001000000000000000000000000 ^
1#
1)
#3070000
0)
#3075000
1]
0#
1)
#3080000
0)
#3085000
b101111 \
0]
b1001000000000000100100000000000010010000000000000000000000000 ^
1#
1)
#3090000
0)
#3095000
1]
0#
1)
#3100000
0)
#3105000
b101110 \
0]
b10010000000000001001000000000000100100000000000000000000000000 ^
1#
1)
#3110000
0)
#3115000
1]
0#
1)
#3120000
0)
#3125000
b101101 \
0]
b100100000000000010010000000000001001000000000000000000000000000 ^
1#
1)
#3130000
0)
#3135000
1]
0#
1)
#3140000
0)
#3145000
b101100 \
0]
b1001000000000000100100000000000010010000000000000000000000000000 ^
1#
1)
#3150000
0)
#3155000
1]
1"
0#
1)
#3160000
0)
#3165000
b101011 \
0]
b10000000000001001000000000000100100000000000000000000000000000 ^
1#
1)
#3170000
0)
#3175000
1]
0"
0#
1)
#3180000
0)
#3185000
b101010 \
0]
b100000000000010010000000000001001000000000000000000000000000000 ^
1#
1)
#3190000
0)
#3195000
1]
0#
1)
#3200000
0)
#3205000
b101001 \
0]
b1000000000000100100000000000010010000000000000000000000000000000 ^
1#
1)
#3210000
0)
#3215000
1]
1"
0#
1)
#3220000
0)
#3225000
b101000 \
0]
b1001000000000000100100000000000000000000000000000000 ^
1#
1)
#3230000
0)
#3235000
1]
0"
0#
1)
#3240000
0)
#3245000
b100111 \
0]
b10010000000000001001000000000000000000000000000000000 ^
1#
1)
#3250000
0)
#3255000
1]
0#
1)
#3260000
0)
#3265000
b100110 \
0]
b100100000000000010010000000000000000000000000000000000 ^
1#
1)
#3270000
0)
#3275000
1]
0#
1)
#3280000
0)
#3285000
b100101 \
0]
b1001000000000000100100000000000000000000000000000000000 ^
1#
1)
#3290000
0)
#3295000
1]
0#
1)
#3300000
0)
#3305000
b100100 \
0]
b10010000000000001001000000000000000000000000000000000000 ^
1#
1)
