TESTBENCH/sims/state.vcd
$date
	Sun Jun 21 21:59:09 2026
$end
$version
	Icarus Verilog
$end
$timescale
	1ps
$end
$scope module tb_state_machine $end
$var wire 1 ! load $end
$var wire 1 " d_out $end
$var wire 1 # clk_out $end
$var reg 32 $ ascii_data [31:0] $end
$var reg 1 % clk $end
$var reg 8 & ctrl_reg [7:0] $end
$scope module uut $end
$var wire 32 ' ascii_data [31:0] $end
$var wire 1 % clk $end
$var wire 8 ( ctrl_reg [7:0] $end
$var wire 1 ) ready $end
$var wire 1 * packet_valid $end
$var wire 1 + packet $end
$var wire 1 ! load $end
$var wire 1 " d_out $end
$var wire 1 # clk_out $end
$var wire 1 , busy $end
$var parameter 2 - ASCII $end
$var parameter 2 . BLINK_IDX $end
$var parameter 2 / BRIGHTNESS $end
$var parameter 4 0 BRIGHTNESS_CHANGE $end
$var parameter 4 1 DECODE_OFF $end
$var parameter 2 2 ENABLE $end
$var parameter 4 3 IDLE $end
$var parameter 4 4 SEND_CTRL_REG $end
$var parameter 4 5 START_SEND $end
$var parameter 4 6 START_TRANSLATION $end
$var parameter 4 7 STEP_ROW $end
$var parameter 4 8 TRANSLATION $end
$var parameter 4 9 WAIT_SEND_SIMPLE $end
$var parameter 4 : WAIT_TRANS $end
$var reg 2 ; blink_idx [1:0] $end
$var reg 2 < brightness [1:0] $end
$var reg 64 = data [63:0] $end
$var reg 8 > prev_ctrl_val [7:0] $end
$var reg 4 ? row_idx [3:0] $end
$var reg 1 @ start_fifo $end
$var reg 1 A start_trans $end
$var reg 4 B state [3:0] $end
$scope module fifo $end
$var wire 1 C abort $end
$var wire 1 % clk_in $end
$var wire 64 D data [63:0] $end
$var wire 1 @ start $end
$var parameter 2 E IDLE $end
$var parameter 2 F LATCH $end
$var parameter 32 G N $end
$var parameter 2 H SHIFT $end
$var parameter 64 I TOTAL_BITS $end
$var reg 7 J bit_cnt [6:0] $end
$var reg 1 , busy $end
$var reg 1 # clk_out $end
$var reg 1 " d_out $end
$var reg 1 ! load $end
$var reg 1 K phase $end
$var reg 64 L shreg [63:0] $end
$var reg 2 M state [1:0] $end
$upscope $end
$scope module trans $end
$var wire 28 N ascii_data [27:0] $end
$var wire 1 % clk $end
$var wire 3 O row_idx [2:0] $end
$var wire 1 A start $end
$var wire 8 P row_data [7:0] $end
$var parameter 3 Q DONE $end
$var parameter 3 R FETCH $end
$var parameter 3 S IDLE $end
$var parameter 32 T N $end
$var parameter 3 U STORE $end
$var parameter 3 V WAIT_ROM $end
$var reg 7 W ascii_code [6:0] $end
$var reg 3 X idx [2:0] $end
$var reg 1 * packet_valid $end
$var reg 1 ) ready $end
$var reg 64 Y row_packet [63:0] $end
$var reg 3 Z state [2:0] $end
$scope module ascii_rom $end
$var wire 7 [ ascii_code [6:0] $end
$var wire 1 % clk $end
$var wire 3 \ row_index [2:0] $end
$var reg 64 ] full_char [63:0] $end
$var reg 8 ^ row_data [7:0] $end
$upscope $end
$upscope $end
$upscope $end
$upscope $end
$enddefinitions $end
$comment Show the parameter values. $end
$dumpall
b11 V
b100 U
b100 T
b0 S
b1 R
b10 Q
b1000000 I
b1 H
b100 G
b10 F
b0 E
b1000 :
b100 9
b1001 8
b110 7
b111 6
b101 5
b11 4
b1 3
b0 2
b10 1
b1010 0
b1 /
b11 .
b10 -
$end
#0
$dumpvars
bx ^
b0 ]
b0 \
b0 [
b0 Z
bx Y
b0 X
b0 W
bx P
b0 O
b0 N
b0 M
b0 L
0K
b0 J
b0 D
zC
b1 B
0A
x@
b0 ?
b11 >
b0 =
b1 <
bx ;
x,
x+
x*
x)
b0 (
b0 '
b0 &
0%
b0 $
x#
x"
x!
$end
#5000
b0 P
b0 ^
0*
1)
b1000000 J
0,
0"
0#
1!
0@
b0 >
1%
#10000
0%
#15000
1%
#20000
0%
b1 &
b1 (
#25000
b10 B
b1 >
1%
#30000
0%
#35000
1@
b11 B
b100100000000000010010000000000001001000000000000100100000000 =
b100100000000000010010000000000001001000000000000100100000000 D
1%
#40000
0%
#45000
b1 M
0!
1,
b100100000000000010010000000000001001000000000000100100000000 L
b100 B
0@
1%
#50000
0%
#55000
1K
1%
#60000
0%
#65000
b111111 J
0K
b1001000000000000100100000000000010010000000000001001000000000 L
1#
1%
#70000
0%
#75000
1K
0#
1%
#80000
0%
#85000
b111110 J
0K
b10010000000000001001000000000000100100000000000010010000000000 L
1#
1%
#90000
0%
#95000
1K
0#
1%
#100000
0%
#105000
b111101 J
0K
b100100000000000010010000000000001001000000000000100100000000000 L
1#
1%
#110000
0%
#115000
1K
0#
1%
#120000
0%
#125000
b111100 J
0K
b1001000000000000100100000000000010010000000000001001000000000000 L
1#
1%
#130000
0%
#135000
1K
1"
0#
1%
#140000
0%
#145000
b111011 J
0K
b10000000000001001000000000000100100000000000010010000000000000 L
1#
1%
#150000
0%
#155000
1K
0"
0#
1%
#160000
0%
#165000
b111010 J
0K
b100000000000010010000000000001001000000000000100100000000000000 L
1#
1%
#170000
0%
#175000
1K
0#
1%
#180000
0%
#185000
b111001 J
0K
b1000000000000100100000000000010010000000000001001000000000000000 L
1#
1%
#190000
0%
#195000
1K
1"
0#
1%
#200000
0%
#205000
b111000 J
0K
b1001000000000000100100000000000010010000000000000000 L
1#
1%
#210000
0%
#215000
1K
0"
0#
1%
#220000
0%
#225000
b110111 J
0K
b10010000000000001001000000000000100100000000000000000 L
1#
1%
#230000
0%
#235000
1K
0#
1%
#240000
0%
#245000
b110110 J
0K
b100100000000000010010000000000001001000000000000000000 L
1#
1%
#250000
0%
#255000
1K
0#
1%
#260000
0%
#265000
b110101 J
0K
b1001000000000000100100000000000010010000000000000000000 L
1#
1%
#270000
0%
#275000
1K
0#
1%
#280000
0%
#285000
b110100 J
0K
b10010000000000001001000000000000100100000000000000000000 L
1#
1%
#290000
0%
#295000
1K
0#
1%
#300000
0%
#305000
b110011 J
0K
b100100000000000010010000000000001001000000000000000000000 L
1#
1%
#310000
0%
#315000
1K
0#
1%
#320000
0%
#325000
b110010 J
0K
b1001000000000000100100000000000010010000000000000000000000 L
1#
1%
#330000
0%
#335000
1K
0#
1%
#340000
0%
#345000
b110001 J
0K
b10010000000000001001000000000000100100000000000000000000000 L
1#
1%
#350000
0%
#355000
1K
0#
1%
#360000
0%
#365000
b110000 J
0K
b100100000000000010010000000000001001000000000000000000000000 L
1#
1%
#370000
0%
#375000
1K
0#
1%
#380000
0%
#385000
b101111 J
0K
b1001000000000000100100000000000010010000000000000000000000000 L
1#
1%
#390000
0%
#395000
1K
0#
1%
#400000
0%
#405000
b101110 J
0K
b10010000000000001001000000000000100100000000000000000000000000 L
1#
1%
#410000
0%
#415000
1K
0#
1%
#420000
0%
#425000
b101101 J
0K
b100100000000000010010000000000001001000000000000000000000000000 L
1#
1%
#430000
0%
#435000
1K
0#
1%
#440000
0%
#445000
b101100 J
0K
b1001000000000000100100000000000010010000000000000000000000000000 L
1#
1%
#450000
0%
#455000
1K
1"
0#
1%
#460000
0%
#465000
b101011 J
0K
b10000000000001001000000000000100100000000000000000000000000000 L
1#
1%
#470000
0%
#475000
1K
0"
0#
1%
#480000
0%
#485000
b101010 J
0K
b100000000000010010000000000001001000000000000000000000000000000 L
1#
1%
#490000
0%
#495000
1K
0#
1%
#500000
0%
#505000
b101001 J
0K
b1000000000000100100000000000010010000000000000000000000000000000 L
1#
1%
#510000
0%
#515000
1K
1"
0#
1%
#520000
0%
#525000
b101000 J
0K
b1001000000000000100100000000000000000000000000000000 L
1#
1%
#530000
0%
#535000
1K
0"
0#
1%
#540000
0%
#545000
b100111 J
0K
b10010000000000001001000000000000000000000000000000000 L
1#
1%
#550000
0%
#555000
1K
0#
1%
#560000
0%
#565000
b100110 J
0K
b100100000000000010010000000000000000000000000000000000 L
1#
1%
#570000
0%
#575000
1K
0#
1%
#580000
0%
#585000
b100101 J
0K
b1001000000000000100100000000000000000000000000000000000 L
1#
1%
#590000
0%
#595000
1K
0#
1%
#600000
0%
#605000
b100100 J
0K
b10010000000000001001000000000000000000000000000000000000 L
1#
1%
#610000
0%
#615000
1K
0#
1%
#620000
0%
#625000
b100011 J
0K
b100100000000000010010000000000000000000000000000000000000 L
1#
1%
#630000
0%
#635000
1K
0#
1%
#640000
0%
#645000
b100010 J
0K
b1001000000000000100100000000000000000000000000000000000000 L
1#
1%
#650000
0%
#655000
1K
0#
1%
#660000
0%
#665000
b100001 J
0K
b10010000000000001001000000000000000000000000000000000000000 L
1#
1%
#670000
0%
#675000
1K
0#
1%
#680000
0%
#685000
b100000 J
0K
b100100000000000010010000000000000000000000000000000000000000 L
1#
1%
#690000
0%
#695000
1K
0#
1%
#700000
0%
#705000
b11111 J
0K
b1001000000000000100100000000000000000000000000000000000000000 L
1#
1%
#710000
0%
#715000
1K
0#
1%
#720000
0%
#725000
b11110 J
0K
b10010000000000001001000000000000000000000000000000000000000000 L
1#
1%
#730000
0%
#735000
1K
0#
1%
#740000
0%
#745000
b11101 J
0K
b100100000000000010010000000000000000000000000000000000000000000 L
1#
1%
#750000
0%
#755000
1K
0#
1%
#760000
0%
#765000
b11100 J
0K
b1001000000000000100100000000000000000000000000000000000000000000 L
1#
1%
#770000
0%
#775000
1K
1"
0#
1%
#780000
0%
#785000
b11011 J
0K
b10000000000001001000000000000000000000000000000000000000000000 L
1#
1%
#790000
0%
#795000
1K
0"
0#
1%
#800000
0%
#805000
b11010 J
0K
b100000000000010010000000000000000000000000000000000000000000000 L
1#
1%
#810000
0%
#815000
1K
0#
1%
#820000
0%
#825000
b11001 J
0K
b1000000000000100100000000000000000000000000000000000000000000000 L
1#
1%
#830000
0%
#835000
1K
1"
0#
1%
#840000
0%
#845000
b11000 J
0K
b1001000000000000000000000000000000000000000000000000 L
1#
1%
#850000
0%
#855000
1K
0"
0#
1%
#860000
0%
#865000
b10111 J
0K
b10010000000000000000000000000000000000000000000000000 L
1#
1%
#870000
0%
#875000
1K
0#
1%
#880000
0%
#885000
b10110 J
0K
b100100000000000000000000000000000000000000000000000000 L
1#
1%
#890000
0%
#895000
1K
0#
1%
#900000
0%
#905000
b10101 J
0K
b1001000000000000000000000000000000000000000000000000000 L
1#
1%
#910000
0%
#915000
1K
0#
1%
#920000
0%
#925000
b10100 J
0K
b10010000000000000000000000000000000000000000000000000000 L
1#
1%
#930000
0%
#935000
1K
0#
1%
#940000
0%
#945000
b10011 J
0K
b100100000000000000000000000000000000000000000000000000000 L
1#
1%
#950000
0%
#955000
1K
0#
1%
#960000
0%
#965000
b10010 J
0K
b1001000000000000000000000000000000000000000000000000000000 L
1#
1%
#970000
0%
#975000
1K
0#
1%
#980000
0%
#985000
b10001 J
0K
b10010000000000000000000000000000000000000000000000000000000 L
1#
1%
#990000
0%
#995000
1K
0#
1%
#1000000
0%
#1005000
b10000 J
0K
b100100000000000000000000000000000000000000000000000000000000 L
1#
1%
#1010000
0%
#1015000
1K
0#
1%
#1020000
0%
#1025000
b1111 J
0K
b1001000000000000000000000000000000000000000000000000000000000 L
1#
1%
#1030000
0%
#1035000
1K
0#
1%
#1040000
0%
#1045000
b1110 J
0K
b10010000000000000000000000000000000000000000000000000000000000 L
1#
1%
#1050000
0%
#1055000
1K
0#
1%
#1060000
0%
#1065000
b1101 J
0K
b100100000000000000000000000000000000000000000000000000000000000 L
1#
1%
#1070000
0%
#1075000
1K
0#
1%
#1080000
0%
#1085000
b1100 J
0K
b1001000000000000000000000000000000000000000000000000000000000000 L
1#
1%
#1090000
0%
#1095000
1K
1"
0#
1%
#1100000
0%
#1105000
b1011 J
0K
b10000000000000000000000000000000000000000000000000000000000000 L
1#
1%
#1110000
0%
#1115000
1K
0"
0#
1%
#1120000
0%
#1125000
b1010 J
0K
b100000000000000000000000000000000000000000000000000000000000000 L
1#
1%
#1130000
0%
#1135000
1K
0#
1%
#1140000
0%
#1145000
b1001 J
0K
b1000000000000000000000000000000000000000000000000000000000000000 L
1#
1%
#1150000
0%
#1155000
1K
1"
0#
1%
#1160000
0%
#1165000
b1000 J
0K
b0 L
1#
1%
#1170000
0%
#1175000
1K
0"
0#
1%
#1180000
0%
#1185000
b111 J
0K
1#
1%
#1190000
0%
#1195000
1K
0#
1%
#1200000
0%
#1205000
b110 J
0K
1#
1%
#1210000
0%
#1215000
1K
0#
1%
#1220000
0%
#1225000
b101 J
0K
1#
1%
#1230000
0%
#1235000
1K
0#
1%
#1240000
0%
#1245000
b100 J
0K
1#
1%
#1250000
0%
#1255000
1K
0#
1%
#1260000
0%
#1265000
b11 J
0K
1#
1%
#1270000
0%
#1275000
1K
0#
1%
#1280000
0%
#1285000
b10 J
0K
1#
1%
#1290000
0%
#1295000
1K
0#
1%
#1300000
0%
#1305000
b1 J
0K
1#
1%
#1310000
0%
#1315000
1K
0#
1%
#1320000
0%
#1325000
b10 M
b0 J
0K
1#
1%
#1330000
0%
#1335000
b0 M
0,
1!
0#
1%
#1340000
0%
#1345000
b1000000 J
b1 B
1%
