state.vcd
$date
	Wed Jun 17 19:34:51 2026
$end
$version
	Icarus Verilog
$end
$timescale
	1ps
$end
$scope module tb_state_machine $end
$var wire 1 ! load $end
$var wire 1 " d_out $end
$var wire 1 # clk_out $end
$var reg 32 $ ascii_data [31:0] $end
$var reg 1 % clk $end
$var reg 8 & ctrl_reg [7:0] $end
$scope module uut $end
$var wire 32 ' ascii_data [31:0] $end
$var wire 1 % clk $end
$var wire 8 ( ctrl_reg [7:0] $end
$var wire 64 ) packet [63:0] $end
$var wire 1 * ready $end
$var wire 1 + packet_valid $end
$var wire 1 ! load $end
$var wire 1 " d_out $end
$var wire 1 # clk_out $end
$var wire 1 , busy $end
$var parameter 2 - ASCII $end
$var parameter 2 . BLINK_IDX $end
$var parameter 2 / BRIGHTNESS $end
$var parameter 4 0 BRIGHTNESS_CHANGE $end
$var parameter 4 1 DECODE_OFF $end
$var parameter 2 2 ENABLE $end
$var parameter 4 3 IDLE $end
$var parameter 4 4 SEND_CTRL_REG $end
$var parameter 4 5 START_SEND $end
$var parameter 4 6 START_TRANSLATION $end
$var parameter 4 7 STEP_ROW $end
$var parameter 4 8 TRANSLATION $end
$var parameter 4 9 WAIT_SEND_SIMPLE $end
$var parameter 4 : WAIT_TRANS $end
$var reg 2 ; blink_idx [1:0] $end
$var reg 2 < brightness [1:0] $end
$var reg 64 = data [63:0] $end
$var reg 4 > row_idx [3:0] $end
$var reg 1 ? start_fifo $end
$var reg 1 @ start_trans $end
$var reg 4 A state [3:0] $end
$scope module fifo $end
$var wire 1 % clk_in $end
$var wire 64 B data [63:0] $end
$var wire 1 ? start $end
$var parameter 2 C IDLE $end
$var parameter 2 D LATCH $end
$var parameter 32 E N $end
$var parameter 2 F SHIFT $end
$var parameter 64 G TOTAL_BITS $end
$var reg 7 H bit_cnt [6:0] $end
$var reg 1 , busy $end
$var reg 1 # clk_out $end
$var reg 1 " d_out $end
$var reg 1 ! load $end
$var reg 1 I phase $end
$var reg 64 J shreg [63:0] $end
$var reg 2 K state [1:0] $end
$upscope $end
$scope module trans $end
$var wire 28 L ascii_data [27:0] $end
$var wire 1 % clk $end
$var wire 3 M row_idx [2:0] $end
$var wire 1 @ start $end
$var wire 8 N row_data [7:0] $end
$var parameter 3 O DONE $end
$var parameter 3 P FETCH $end
$var parameter 3 Q IDLE $end
$var parameter 32 R N $end
$var parameter 3 S STORE $end
$var parameter 3 T WAIT_ROM $end
$var reg 7 U ascii_code [6:0] $end
$var reg 3 V idx [2:0] $end
$var reg 1 + packet_valid $end
$var reg 1 * ready $end
$var reg 64 W row_packet [63:0] $end
$var reg 3 X state [2:0] $end
$scope module ascii_rom $end
$var wire 7 Y ascii_code [6:0] $end
$var wire 1 % clk $end
$var wire 3 Z row_index [2:0] $end
$var reg 64 [ full_char [63:0] $end
$var reg 8 \ row_data [7:0] $end
$upscope $end
$upscope $end
$upscope $end
$upscope $end
$enddefinitions $end
$comment Show the parameter values. $end
$dumpall
b11 T
b100 S
b100 R
b0 Q
b1 P
b10 O
b1000000 G
b1 F
b100 E
b10 D
b0 C
b1000 :
b100 9
b1001 8
b110 7
b111 6
b101 5
b11 4
b1 3
b0 2
b10 1
b1010 0
b1 /
b11 .
b10 -
$end
#0
$dumpvars
bx \
b0 [
bz Z
b0 Y
b0 X
bx W
b0 V
b0 U
bx N
bz M
b0 L
b0 K
b0 J
0I
b0 H
b0 B
b1 A
0@
x?
b0 >
b0 =
b1 <
bx ;
x,
x+
x*
bx )
b0 (
b0 '
b0 &
0%
b0 $
x#
x"
x!
$end
#5000
b0 N
b0 \
0+
1*
b1000000 H
0,
0"
0#
1!
0?
1%
#10000
0%
#15000
1%
#20000
0%
#25000
1%
#30000
0%
#35000
1%
#40000
0%
#45000
1%
#50000
0%
#55000
1%
#60000
0%
#65000
1%
#70000
0%
#75000
1%
#80000
0%
#85000
1%
#90000
0%
#95000
1%
#100000
0%
#105000
1%
#110000
0%
#115000
1%
#120000
0%
b1 &
b1 (
#125000
b10 A
1%
#130000
0%
#135000
b11 A
b100100000000000010010000000000001001000000000000100100000000 =
b100100000000000010010000000000001001000000000000100100000000 B
1%
#140000
0%
b0 &
b0 (
#145000
b100 A
1?
1%
#150000
0%
#155000
b1 A
0?
b1 K
0!
1,
b100100000000000010010000000000001001000000000000100100000000 J
1%
#160000
0%
#165000
1I
1%
#170000
0%
#175000
b111111 H
0I
b1001000000000000100100000000000010010000000000001001000000000 J
1#
1%
#180000
0%
#185000
1I
0#
1%
#190000
0%
#195000
b111110 H
0I
b10010000000000001001000000000000100100000000000010010000000000 J
1#
1%
#200000
0%
#205000
1I
0#
1%
#210000
0%
#215000
b111101 H
0I
b100100000000000010010000000000001001000000000000100100000000000 J
1#
1%
#220000
0%
#225000
1I
0#
1%
#230000
0%
#235000
b111100 H
0I
b1001000000000000100100000000000010010000000000001001000000000000 J
1#
1%
#240000
0%
#245000
1I
1"
0#
1%
#250000
0%
#255000
b111011 H
0I
b10000000000001001000000000000100100000000000010010000000000000 J
1#
1%
#260000
0%
#265000
1I
0"
0#
1%
#270000
0%
#275000
b111010 H
0I
b100000000000010010000000000001001000000000000100100000000000000 J
1#
1%
#280000
0%
#285000
1I
0#
1%
#290000
0%
#295000
b111001 H
0I
b1000000000000100100000000000010010000000000001001000000000000000 J
1#
1%
#300000
0%
#305000
1I
1"
0#
1%
#310000
0%
#315000
b111000 H
0I
b1001000000000000100100000000000010010000000000000000 J
1#
1%
#320000
0%
#325000
1I
0"
0#
1%
#330000
0%
#335000
b110111 H
0I
b10010000000000001001000000000000100100000000000000000 J
1#
1%
#340000
0%
#345000
1I
0#
1%
#350000
0%
#355000
b110110 H
0I
b100100000000000010010000000000001001000000000000000000 J
1#
1%
#360000
0%
b1000011 &
b1000011 (
#365000
1I
0#
b1010 A
1%
#370000
0%
#375000
b11 A
b101000001100000010100000110000001010000011000000101000001100 =
b101000001100000010100000110000001010000011000000101000001100 B
b110101 H
0I
b1001000000000000100100000000000010010000000000000000000 J
1#
1%
#380000
0%
b0 &
b0 (
#385000
1I
0#
1%
#390000
0%
#395000
b110100 H
0I
b10010000000000001001000000000000100100000000000000000000 J
1#
1%
#400000
0%
#405000
1I
0#
1%
#410000
0%
#415000
b110011 H
0I
b100100000000000010010000000000001001000000000000000000000 J
1#
1%
#420000
0%
#425000
1I
0#
1%
#430000
0%
#435000
b110010 H
0I
b1001000000000000100100000000000010010000000000000000000000 J
1#
1%
#440000
0%
#445000
1I
0#
1%
#450000
0%
#455000
b110001 H
0I
b10010000000000001001000000000000100100000000000000000000000 J
1#
1%
#460000
0%
#465000
1I
0#
1%
#470000
0%
#475000
b110000 H
0I
b100100000000000010010000000000001001000000000000000000000000 J
1#
1%
#480000
0%
#485000
1I
0#
1%
#490000
0%
#495000
b101111 H
0I
b1001000000000000100100000000000010010000000000000000000000000 J
1#
1%
#500000
0%
#505000
1I
0#
1%
#510000
0%
#515000
b101110 H
0I
b10010000000000001001000000000000100100000000000000000000000000 J
1#
1%
#520000
0%
#525000
1I
0#
1%
#530000
0%
#535000
b101101 H
0I
b100100000000000010010000000000001001000000000000000000000000000 J
1#
1%
#540000
0%
#545000
1I
0#
1%
#550000
0%
#555000
b101100 H
0I
b1001000000000000100100000000000010010000000000000000000000000000 J
1#
1%
#560000
0%
#565000
1I
1"
0#
1%
#570000
0%
#575000
b101011 H
0I
b10000000000001001000000000000100100000000000000000000000000000 J
1#
1%
#580000
0%
#585000
1I
0"
0#
1%
#590000
0%
#595000
b101010 H
0I
b100000000000010010000000000001001000000000000000000000000000000 J
1#
1%
#600000
0%
b11000010 &
b11000010 (
#605000
1I
0#
b10 ;
1%
#610000
0%
#615000
b101001 H
0I
b1000000000000100100000000000010010000000000000000000000000000000 J
1#
1%
#620000
0%
b0 &
b0 (
#625000
1I
1"
0#
1%
#630000
0%
#635000
b101000 H
0I
b1001000000000000100100000000000000000000000000000000 J
1#
1%
#640000
0%
#645000
1I
0"
0#
1%
#650000
0%
#655000
b100111 H
0I
b10010000000000001001000000000000000000000000000000000 J
1#
1%
#660000
0%
#665000
1I
0#
1%
#670000
0%
#675000
b100110 H
0I
b100100000000000010010000000000000000000000000000000000 J
1#
1%
#680000
0%
#685000
1I
0#
1%
#690000
0%
#695000
b100101 H
0I
b1001000000000000100100000000000000000000000000000000000 J
1#
1%
#700000
0%
#705000
1I
0#
1%
#710000
0%
#715000
b100100 H
0I
b10010000000000001001000000000000000000000000000000000000 J
1#
1%
#720000
0%
#725000
1I
0#
1%
#730000
0%
#735000
b100011 H
0I
b100100000000000010010000000000000000000000000000000000000 J
1#
1%
#740000
b100000101000010010000110100 L
0%
b10000000 &
b10000000 (
b100000101000010010000110100 $
b100000101000010010000110100 '
#745000
1I
0#
b1001 A
1%
#750000
0%
#755000
b111 A
b100010 H
0I
b1001000000000000100100000000000000000000000000000000000000 J
1#
1%
#760000
0%
b0 &
b0 (
#765000
1I
0#
1@
1%
#770000
0%
#775000
b100001 H
0I
b10010000000000001001000000000000000000000000000000000000000 J
1#
b1 X
0*
1%
#780000
0%
#785000
b1100000111000010110001001100011111100000110000001100 [
b11 X
b110100 U
b110100 Y
1I
0#
1%
#790000
0%
#795000
b100000 H
0I
b100100000000000010010000000000000000000000000000000000000000 J
1#
b100 X
1%
#800000
0%
#805000
b1 X
b1 V
b0xxxxxxxxxxxxxxxxxxxxxxxxxxxxxxxxxxxxxxxxxxxxxxxx )
b0zzz00000000xxxxxxxxxxxxxxxxxxxxxxxxxxxxxxxxxxxxxxxxxxxxxxxx W
1I
0#
1%
#810000
0%
#815000
b1000010010000100100001001111110010000100100001001000010 [
b11111 H
0I
b1001000000000000100100000000000000000000000000000000000000000 J
1#
b11 X
b1001000 U
b1001000 Y
1%
#820000
0%
#825000
b100 X
1I
0#
1%
#830000
0%
#835000
b11110 H
0I
b10010000000000001001000000000000000000000000000000000000000000 J
1#
b1 X
b10 V
b0xxxxxxxxxxxxxxxxxxxxxxxxxxxxxxxx )
b0zzz0000000000000zzz00000000xxxxxxxxxxxxxxxxxxxxxxxxxxxxxxxx W
1%
#840000
0%
#845000
b1111100010000100100001001111100010000000100000001000000 [
b11 X
b1010000 U
b1010000 Y
1I
0#
1%
#850000
0%
#855000
b11101 H
0I
b100100000000000010010000000000000000000000000000000000000000000 J
1#
b100 X
1%
#860000
0%
#865000
b1 X
b11 V
b0xxxxxxxxxxxxxxxx )
b0zzz0000000000000zzz0000000000000zzz00000000xxxxxxxxxxxxxxxx W
1I
0#
1%
#870000
0%
#875000
b0 [
b11100 H
0I
b1001000000000000100100000000000000000000000000000000000000000000 J
1#
b11 X
b100000 U
b100000 Y
1%
#880000
0%
#885000
b100 X
1I
1"
0#
1%
#890000
0%
#895000
b11011 H
0I
b10000000000001001000000000000000000000000000000000000000000000 J
1#
b10 X
b0 V
b0 )
b0zzz0000000000000zzz0000000000000zzz0000000000000zzz00000000 W
1%
#900000
0%
#905000
b0 X
1+
1*
1I
0"
0#
1%
#910000
0%
#915000
0@
b101 A
b11010 H
0I
b100000000000010010000000000000000000000000000000000000000000000 J
1#
b1 X
0*
b0 U
b0 Y
0+
1%
#920000
0%
#925000
b1100000111000010110001001100011111100000110000001100 [
b11 X
b110100 U
b110100 Y
1I
0#
b1000 A
b0 =
b0 B
1?
1%
#930000
0%
#935000
0?
b11001 H
0I
b1000000000000100100000000000000000000000000000000000000000000000 J
1#
b100 X
1%
#940000
0%
#945000
b1 X
b1 V
1I
1"
0#
1%
#950000
0%
#955000
b1000010010000100100001001111110010000100100001001000010 [
b11000 H
0I
b1001000000000000000000000000000000000000000000000000 J
1#
b11 X
b1001000 U
b1001000 Y
1%
#960000
0%
#965000
b100 X
1I
0"
0#
1%
#970000
0%
#975000
b10111 H
0I
b10010000000000000000000000000000000000000000000000000 J
1#
b1 X
b10 V
1%
#980000
0%
#985000
b1111100010000100100001001111100010000000100000001000000 [
b11 X
b1010000 U
b1010000 Y
1I
0#
1%
#990000
0%
#995000
b10110 H
0I
b100100000000000000000000000000000000000000000000000000 J
1#
b100 X
1%
#1000000
0%
#1005000
b1 X
b11 V
1I
0#
1%
#1010000
0%
#1015000
b0 [
b10101 H
0I
b1001000000000000000000000000000000000000000000000000000 J
1#
b11 X
b100000 U
b100000 Y
1%
#1020000
0%
#1025000
b100 X
1I
0#
1%
#1030000
0%
#1035000
b10100 H
0I
b10010000000000000000000000000000000000000000000000000000 J
1#
b10 X
b0 V
1%
#1040000
0%
#1045000
b0 X
1+
1*
1I
0#
1%
#1050000
0%
#1055000
b10011 H
0I
b100100000000000000000000000000000000000000000000000000000 J
1#
b0 U
b0 Y
0+
1%
#1060000
0%
#1065000
1I
0#
1%
#1070000
0%
#1075000
b10010 H
0I
b1001000000000000000000000000000000000000000000000000000000 J
1#
1%
#1080000
0%
#1085000
1I
0#
1%
#1090000
0%
#1095000
b10001 H
0I
b10010000000000000000000000000000000000000000000000000000000 J
1#
1%
#1100000
0%
#1105000
1I
0#
1%
#1110000
0%
#1115000
b10000 H
0I
b100100000000000000000000000000000000000000000000000000000000 J
1#
1%
#1120000
0%
#1125000
1I
0#
1%
#1130000
0%
#1135000
b1111 H
0I
b1001000000000000000000000000000000000000000000000000000000000 J
1#
1%
#1140000
0%
#1145000
1I
0#
1%
#1150000
0%
#1155000
b1110 H
0I
b10010000000000000000000000000000000000000000000000000000000000 J
1#
1%
#1160000
0%
#1165000
1I
0#
1%
#1170000
0%
#1175000
b1101 H
0I
b100100000000000000000000000000000000000000000000000000000000000 J
1#
1%
#1180000
0%
#1185000
1I
0#
1%
#1190000
0%
#1195000
b1100 H
0I
b1001000000000000000000000000000000000000000000000000000000000000 J
1#
1%
#1200000
0%
#1205000
1I
1"
0#
1%
#1210000
0%
#1215000
b1011 H
0I
b10000000000000000000000000000000000000000000000000000000000000 J
1#
1%
#1220000
0%
#1225000
1I
0"
0#
1%
#1230000
0%
#1235000
b1010 H
0I
b100000000000000000000000000000000000000000000000000000000000000 J
1#
1%
#1240000
0%
#1245000
1I
0#
1%
#1250000
0%
#1255000
b1001 H
0I
b1000000000000000000000000000000000000000000000000000000000000000 J
1#
1%
#1260000
0%
#1265000
1I
1"
0#
1%
#1270000
0%
#1275000
b1000 H
0I
b0 J
1#
1%
#1280000
0%
#1285000
1I
0"
0#
1%
#1290000
0%
#1295000
b111 H
0I
1#
1%
#1300000
0%
#1305000
1I
0#
1%
#1310000
0%
#1315000
b110 H
0I
1#
1%
#1320000
0%
#1325000
1I
0#
1%
#1330000
0%
#1335000
b101 H
0I
1#
1%
#1340000
0%
#1345000
1I
0#
1%
#1350000
0%
#1355000
b100 H
0I
1#
1%
#1360000
0%
#1365000
1I
0#
1%
#1370000
0%
#1375000
b11 H
0I
1#
1%
#1380000
0%
#1385000
1I
0#
1%
#1390000
0%
#1395000
b10 H
0I
1#
1%
#1400000
0%
#1405000
1I
0#
1%
#1410000
0%
#1415000
b1 H
0I
1#
1%
#1420000
0%
#1425000
1I
0#
1%
#1430000
0%
#1435000
b10 K
b0 H
0I
1#
1%
#1440000
0%
#1445000
b0 K
0,
1!
0#
1%
#1450000
0%
#1455000
b110 A
b1000000 H
1%
#1460000
0%
#1465000
b111 A
b1 >
1%
#1470000
0%
#1475000
1@
1%
#1480000
0%
#1485000
b1 X
0*
1%
#1490000
0%
#1495000
b1100000111000010110001001100011111100000110000001100 [
b11 X
b110100 U
b110100 Y
1%
#1500000
0%
#1505000
b100 X
1%
#1510000
0%
#1515000
b1 X
b1 V
1%
#1520000
0%
#1525000
b1000010010000100100001001111110010000100100001001000010 [
b11 X
b1001000 U
b1001000 Y
1%
#1530000
0%
#1535000
b100 X
1%
#1540000
0%
#1545000
b1 X
b10 V
1%
#1550000
0%
#1555000
b1111100010000100100001001111100010000000100000001000000 [
b11 X
b1010000 U
b1010000 Y
1%
#1560000
0%
#1565000
b100 X
1%
#1570000
0%
#1575000
b1 X
b11 V
1%
#1580000
0%
#1585000
b0 [
b11 X
b100000 U
b100000 Y
1%
#1590000
0%
#1595000
b100 X
1%
#1600000
0%
#1605000
b10 X
b0 V
1%
#1610000
0%
#1615000
b0 X
1+
1*
1%
#1620000
0%
#1625000
b1 X
0*
b0 U
b0 Y
0+
0@
b101 A
1%
#1630000
0%
#1635000
b1100000111000010110001001100011111100000110000001100 [
b1000 A
1?
b11 X
b110100 U
b110100 Y
1%
#1640000
0%
#1645000
b100 X
b1 K
0!
1,
b110 A
0?
1%
#1650000
0%
#1655000
b111 A
b10 >
1I
b1 X
b1 V
1%
#1660000
0%
#1665000
b1000010010000100100001001111110010000100100001001000010 [
b11 X
b1001000 U
b1001000 Y
b111111 H
0I
1#
1@
1%
#1670000
0%
#1675000
1I
0#
b100 X
1%
#1680000
0%
#1685000
b1 X
b10 V
b111110 H
0I
1#
1%
#1690000
0%
#1695000
b1111100010000100100001001111100010000000100000001000000 [
1I
0#
b11 X
b1010000 U
b1010000 Y
1%
#1700000
0%
#1705000
b100 X
b111101 H
0I
1#
1%
#1710000
0%
#1715000
1I
0#
b1 X
b11 V
1%
#1720000
0%
#1725000
b0 [
b11 X
b100000 U
b100000 Y
b111100 H
0I
1#
1%
#1730000
0%
#1735000
1I
0#
b100 X
1%
#1740000
0%
#1745000
b10 X
b0 V
b111011 H
0I
1#
1%
#1750000
0%
#1755000
1I
0#
b0 X
1+
1*
1%
#1760000
0%
#1765000
b1 X
0*
b0 U
b0 Y
0+
b111010 H
0I
1#
0@
b101 A
1%
#1770000
0%
#1775000
b1100000111000010110001001100011111100000110000001100 [
b1000 A
1?
1I
0#
b11 X
b110100 U
b110100 Y
1%
#1780000
0%
#1785000
b100 X
b111001 H
0I
1#
0?
1%
#1790000
0%
#1795000
1I
0#
b1 X
b1 V
1%
#1800000
0%
#1805000
b1000010010000100100001001111110010000100100001001000010 [
b11 X
b1001000 U
b1001000 Y
b111000 H
0I
1#
1%
#1810000
0%
#1815000
1I
0#
b100 X
1%
#1820000
0%
#1825000
b1 X
b10 V
b110111 H
0I
1#
1%
#1830000
0%
#1835000
b1111100010000100100001001111100010000000100000001000000 [
1I
0#
b11 X
b1010000 U
b1010000 Y
1%
#1840000
0%
#1845000
b100 X
b110110 H
0I
1#
1%
#1850000
0%
#1855000
1I
0#
b1 X
b11 V
1%
#1860000
0%
#1865000
b0 [
b11 X
b100000 U
b100000 Y
b110101 H
0I
1#
1%
#1870000
0%
#1875000
1I
0#
b100 X
1%
#1880000
0%
#1885000
b10 X
b0 V
b110100 H
0I
1#
1%
#1890000
0%
#1895000
1I
0#
b0 X
1+
1*
1%
#1900000
0%
#1905000
b0 U
b0 Y
0+
b110011 H
0I
1#
1%
#1910000
0%
#1915000
1I
0#
1%
#1920000
0%
#1925000
b110010 H
0I
1#
1%
#1930000
0%
#1935000
1I
0#
1%
#1940000
0%
#1945000
b110001 H
0I
1#
1%
#1950000
0%
#1955000
1I
0#
1%
#1960000
0%
#1965000
b110000 H
0I
1#
1%
#1970000
0%
#1975000
1I
0#
1%
#1980000
0%
#1985000
b101111 H
0I
1#
1%
#1990000
0%
#1995000
1I
0#
1%
#2000000
0%
#2005000
b101110 H
0I
1#
1%
#2010000
0%
#2015000
1I
0#
1%
#2020000
0%
#2025000
b101101 H
0I
1#
1%
#2030000
0%
#2035000
1I
0#
1%
#2040000
0%
#2045000
b101100 H
0I
1#
1%
#2050000
0%
#2055000
1I
0#
1%
#2060000
0%
#2065000
b101011 H
0I
1#
1%
#2070000
0%
#2075000
1I
0#
1%
#2080000
0%
#2085000
b101010 H
0I
1#
1%
#2090000
0%
#2095000
1I
0#
1%
#2100000
0%
#2105000
b101001 H
0I
1#
1%
#2110000
0%
#2115000
1I
0#
1%
#2120000
0%
#2125000
b101000 H
0I
1#
1%
#2130000
0%
#2135000
1I
0#
1%
#2140000
0%
#2145000
b100111 H
0I
1#
1%
#2150000
0%
#2155000
1I
0#
1%
#2160000
0%
#2165000
b100110 H
0I
1#
1%
#2170000
0%
#2175000
1I
0#
1%
#2180000
0%
#2185000
b100101 H
0I
1#
1%
#2190000
0%
#2195000
1I
0#
1%
#2200000
0%
#2205000
b100100 H
0I
1#
1%
#2210000
0%
#2215000
1I
0#
1%
#2220000
0%
#2225000
b100011 H
0I
1#
1%
#2230000
0%
#2235000
1I
0#
1%
#2240000
0%
#2245000
b100010 H
0I
1#
1%
#2250000
0%
#2255000
1I
0#
1%
#2260000
0%
#2265000
b100001 H
0I
1#
1%
#2270000
0%
#2275000
1I
0#
1%
#2280000
0%
#2285000
b100000 H
0I
1#
1%
#2290000
0%
#2295000
1I
0#
1%
#2300000
0%
#2305000
b11111 H
0I
1#
1%
#2310000
0%
#2315000
1I
0#
1%
#2320000
0%
#2325000
b11110 H
0I
1#
1%
#2330000
0%
#2335000
1I
0#
1%
#2340000
0%
#2345000
b11101 H
0I
1#
1%
#2350000
0%
#2355000
1I
0#
1%
#2360000
0%
#2365000
b11100 H
0I
1#
1%
#2370000
0%
#2375000
1I
0#
1%
#2380000
0%
#2385000
b11011 H
0I
1#
1%
#2390000
0%
#2395000
1I
0#
1%
#2400000
0%
#2405000
b11010 H
0I
1#
1%
#2410000
0%
#2415000
1I
0#
1%
#2420000
0%
#2425000
b11001 H
0I
1#
1%
#2430000
0%
#2435000
1I
0#
1%
#2440000
0%
#2445000
b11000 H
0I
1#
1%
#2450000
0%
#2455000
1I
0#
1%
#2460000
0%
#2465000
b10111 H
0I
1#
1%
#2470000
0%
#2475000
1I
0#
1%
#2480000
0%
#2485000
b10110 H
0I
1#
1%
#2490000
0%
#2495000
1I
0#
1%
#2500000
0%
#2505000
b10101 H
0I
1#
1%
#2510000
0%
#2515000
1I
0#
1%
#2520000
0%
#2525000
b10100 H
0I
1#
1%
#2530000
0%
#2535000
1I
0#
1%
#2540000
0%
#2545000
b10011 H
0I
1#
1%
#2550000
0%
#2555000
1I
0#
1%
#2560000
0%
#2565000
b10010 H
0I
1#
1%
#2570000
0%
#2575000
1I
0#
1%
#2580000
0%
#2585000
b10001 H
0I
1#
1%
#2590000
0%
#2595000
1I
0#
1%
#2600000
0%
#2605000
b10000 H
0I
1#
1%
#2610000
0%
#2615000
1I
0#
1%
#2620000
0%
#2625000
b1111 H
0I
1#
1%
#2630000
0%
#2635000
1I
0#
1%
#2640000
0%
#2645000
b1110 H
0I
1#
1%
#2650000
0%
#2655000
1I
0#
1%
#2660000
0%
#2665000
b1101 H
0I
1#
1%
#2670000
0%
#2675000
1I
0#
1%
#2680000
0%
#2685000
b1100 H
0I
1#
1%
#2690000
0%
#2695000
1I
0#
1%
#2700000
0%
#2705000
b1011 H
0I
1#
1%
#2710000
0%
#2715000
1I
0#
1%
#2720000
0%
#2725000
b1010 H
0I
1#
1%
#2730000
0%
#2735000
1I
0#
1%
#2740000
0%
#2745000
b1001 H
0I
1#
1%
#2750000
0%
#2755000
1I
0#
1%
