TANG/tb.vcd
$date
	Mon Jun 15 20:35:18 2026
$end
$version
	Icarus Verilog
$end
$timescale
	1ps
$end
$scope module tb_dot_matrix_fifo $end
$var wire 1 ! load $end
$var wire 1 " d_out $end
$var wire 1 # clk_out $end
$var wire 1 $ busy $end
$var parameter 32 % N $end
$var reg 1 & clk $end
$var reg 64 ' data [63:0] $end
$var reg 1 ( start $end
$scope module dut $end
$var wire 1 & clk_in $end
$var wire 64 ) data [63:0] $end
$var wire 1 ( start $end
$var parameter 2 * IDLE $end
$var parameter 2 + LATCH $end
$var parameter 32 , N $end
$var parameter 2 - SHIFT $end
$var parameter 64 . TOTAL_BITS $end
$var reg 7 / bit_cnt [6:0] $end
$var reg 1 $ busy $end
$var reg 1 # clk_out $end
$var reg 1 " d_out $end
$var reg 1 ! load $end
$var reg 1 0 phase $end
$var reg 64 1 shreg [63:0] $end
$var reg 2 2 state [1:0] $end
$upscope $end
$scope task send_frame $end
$var reg 64 3 frame [63:0] $end
$upscope $end
$upscope $end
$enddefinitions $end
$comment Show the parameter values. $end
$dumpall
b1000000 .
b1 -
b100 ,
b10 +
b0 *
b100 %
$end
#0
$dumpvars
bx 3
b0 2
b0 1
00
b0 /
b0 )
0(
b0 '
0&
x$
x#
x"
x!
$end
#50000
b1000000 /
0$
0"
0#
1!
1&
#100000
0&
#150000
1&
#200000
0&
#250000
1&
#300000
0&
#350000
b110000000001000011000000000100001100000000010000110000000001 3
1&
#400000
0&
#450000
1(
b110000000001000011000000000100001100000000010000110000000001 '
b110000000001000011000000000100001100000000010000110000000001 )
1&
#500000
0&
#550000
0(
b1 2
0!
1$
b110000000001000011000000000100001100000000010000110000000001 1
1&
#600000
0&
#650000
10
1&
#700000
0&
#750000
b111111 /
00
b1100000000010000110000000001000011000000000100001100000000010 1
1#
1&
#800000
0&
#850000
10
0#
1&
#900000
0&
#950000
b111110 /
00
b11000000000100001100000000010000110000000001000011000000000100 1
1#
1&
#1000000
0&
#1050000
10
0#
1&
#1100000
0&
#1150000
b111101 /
00
b110000000001000011000000000100001100000000010000110000000001000 1
1#
1&
#1200000
0&
#1250000
10
0#
1&
#1300000
0&
#1350000
b111100 /
00
b1100000000010000110000000001000011000000000100001100000000010000 1
1#
1&
#1400000
0&
#1450000
10
1"
0#
1&
#1500000
0&
#1550000
b111011 /
00
b1000000000100001100000000010000110000000001000011000000000100000 1
1#
1&
#1600000
0&
#1650000
10
0#
1&
#1700000
0&
#1750000
b111010 /
00
b1000011000000000100001100000000010000110000000001000000 1
1#
1&
#1800000
0&
#1850000
10
0"
0#
1&
#1900000
0&
#1950000
b111001 /
00
b10000110000000001000011000000000100001100000000010000000 1
1#
1&
#2000000
0&
#2050000
10
0#
1&
#2100000
0&
#2150000
b111000 /
00
b100001100000000010000110000000001000011000000000100000000 1
1#
1&
#2200000
0&
#2250000
10
0#
1&
#2300000
0&
#2350000
b110111 /
00
b1000011000000000100001100000000010000110000000001000000000 1
1#
1&
#2400000
0&
#2450000
10
0#
1&
#2500000
0&
#2550000
b110110 /
00
b10000110000000001000011000000000100001100000000010000000000 1
1#
1&
#2600000
0&
#2650000
10
0#
1&
#2700000
0&
#2750000
b110101 /
00
b100001100000000010000110000000001000011000000000100000000000 1
1#
1&
#2800000
0&
#2850000
10
0#
1&
#2900000
0&
#2950000
b110100 /
00
b1000011000000000100001100000000010000110000000001000000000000 1
1#
1&
#3000000
0&
#3050000
10
0#
1&
#3100000
0&
#3150000
b110011 /
00
b10000110000000001000011000000000100001100000000010000000000000 1
1#
1&
#3200000
0&
#3250000
10
0#
1&
#3300000
0&
#3350000
b110010 /
00
b100001100000000010000110000000001000011000000000100000000000000 1
1#
1&
#3400000
0&
#3450000
10
0#
1&
#3500000
0&
#3550000
b110001 /
00
b1000011000000000100001100000000010000110000000001000000000000000 1
1#
1&
#3600000
0&
#3650000
10
1"
0#
1&
#3700000
0&
#3750000
b110000 /
00
b110000000001000011000000000100001100000000010000000000000000 1
1#
1&
#3800000
0&
#3850000
10
0"
0#
1&
#3900000
0&
#3950000
b101111 /
00
b1100000000010000110000000001000011000000000100000000000000000 1
1#
1&
#4000000
0&
#4050000
10
0#
1&
#4100000
0&
#4150000
b101110 /
00
b11000000000100001100000000010000110000000001000000000000000000 1
1#
1&
#4200000
0&
#4250000
10
0#
1&
#4300000
0&
#4350000
b101101 /
00
b110000000001000011000000000100001100000000010000000000000000000 1
1#
1&
#4400000
0&
#4450000
10
0#
1&
#4500000
0&
#4550000
b101100 /
00
b1100000000010000110000000001000011000000000100000000000000000000 1
1#
1&
#4600000
0&
#4650000
10
1"
0#
1&
#4700000
0&
#4750000
b101011 /
00
b1000000000100001100000000010000110000000001000000000000000000000 1
1#
1&
#4800000
0&
#4850000
10
0#
1&
#4900000
0&
#4950000
b101010 /
00
b1000011000000000100001100000000010000000000000000000000 1
1#
1&
#5000000
0&
#5050000
10
0"
0#
1&
#5100000
0&
#5150000
b101001 /
00
b10000110000000001000011000000000100000000000000000000000 1
1#
1&
#5200000
0&
#5250000
10
0#
1&
#5300000
0&
#5350000
b101000 /
00
b100001100000000010000110000000001000000000000000000000000 1
1#
1&
#5400000
0&
#5450000
10
0#
1&
#5500000
0&
#5550000
b100111 /
00
b1000011000000000100001100000000010000000000000000000000000 1
1#
1&
#5600000
0&
#5650000
10
0#
1&
#5700000
0&
#5750000
b100110 /
00
b10000110000000001000011000000000100000000000000000000000000 1
1#
1&
#5800000
0&
#5850000
10
0#
1&
#5900000
0&
#5950000
b100101 /
00
b100001100000000010000110000000001000000000000000000000000000 1
1#
1&
#6000000
0&
#6050000
10
0#
1&
#6100000
0&
#6150000
b100100 /
00
b1000011000000000100001100000000010000000000000000000000000000 1
1#
1&
#6200000
0&
#6250000
10
0#
1&
#6300000
0&
#6350000
b100011 /
00
b10000110000000001000011000000000100000000000000000000000000000 1
1#
1&
#6400000
0&
#6450000
10
0#
1&
#6500000
0&
#6550000
b100010 /
00
b100001100000000010000110000000001000000000000000000000000000000 1
1#
1&
#6600000
0&
#6650000
10
0#
1&
#6700000
0&
#6750000
b100001 /
00
b1000011000000000100001100000000010000000000000000000000000000000 1
1#
1&
#6800000
0&
#6850000
10
1"
0#
1&
#6900000
0&
#6950000
b100000 /
00
b110000000001000011000000000100000000000000000000000000000000 1
1#
1&
#7000000
0&
#7050000
10
0"
0#
1&
#7100000
0&
#7150000
b11111 /
00
b1100000000010000110000000001000000000000000000000000000000000 1
1#
1&
#7200000
0&
#7250000
10
0#
1&
#7300000
0&
#7350000
b11110 /
00
b11000000000100001100000000010000000000000000000000000000000000 1
1#
1&
#7400000
0&
#7450000
10
0#
1&
#7500000
0&
#7550000
b11101 /
00
b110000000001000011000000000100000000000000000000000000000000000 1
1#
1&
#7600000
0&
#7650000
10
0#
1&
#7700000
0&
#7750000
b11100 /
00
b1100000000010000110000000001000000000000000000000000000000000000 1
1#
1&
#7800000
0&
#7850000
10
1"
0#
1&
#7900000
0&
#7950000
b11011 /
00
b1000000000100001100000000010000000000000000000000000000000000000 1
1#
1&
#8000000
0&
#8050000
10
0#
1&
#8100000
0&
#8150000
b11010 /
00
b1000011000000000100000000000000000000000000000000000000 1
1#
1&
#8200000
0&
#8250000
10
0"
0#
1&
#8300000
0&
#8350000
b11001 /
00
b10000110000000001000000000000000000000000000000000000000 1
1#
1&
#8400000
0&
#8450000
10
0#
1&
#8500000
0&
#8550000
b11000 /
00
b100001100000000010000000000000000000000000000000000000000 1
1#
1&
#8600000
0&
#8650000
10
0#
1&
#8700000
0&
#8750000
b10111 /
00
b1000011000000000100000000000000000000000000000000000000000 1
1#
1&
#8800000
0&
#8850000
10
0#
1&
#8900000
0&
#8950000
b10110 /
00
b10000110000000001000000000000000000000000000000000000000000 1
1#
1&
#9000000
0&
#9050000
10
0#
1&
#9100000
0&
#9150000
b10101 /
00
b100001100000000010000000000000000000000000000000000000000000 1
1#
1&
#9200000
0&
#9250000
10
0#
1&
#9300000
0&
#9350000
b10100 /
00
b1000011000000000100000000000000000000000000000000000000000000 1
1#
1&
#9400000
0&
#9450000
10
0#
1&
#9500000
0&
#9550000
b10011 /
00
b10000110000000001000000000000000000000000000000000000000000000 1
1#
1&
#9600000
0&
#9650000
10
0#
1&
#9700000
0&
#9750000
b10010 /
00
b100001100000000010000000000000000000000000000000000000000000000 1
1#
1&
#9800000
0&
#9850000
10
0#
1&
#9900000
0&
#9950000
b10001 /
00
b1000011000000000100000000000000000000000000000000000000000000000 1
1#
1&
#10000000
0&
#10050000
10
1"
0#
1&
#10100000
0&
#10150000
b10000 /
00
b110000000001000000000000000000000000000000000000000000000000 1
1#
1&
#10200000
0&
#10250000
10
0"
0#
1&
#10300000
0&
#10350000
b1111 /
00
b1100000000010000000000000000000000000000000000000000000000000 1
1#
1&
#10400000
0&
#10450000
10
0#
1&
#10500000
0&
#10550000
b1110 /
00
b11000000000100000000000000000000000000000000000000000000000000 1
1#
1&
#10600000
0&
#10650000
10
0#
1&
#10700000
0&
#10750000
b1101 /
00
b110000000001000000000000000000000000000000000000000000000000000 1
1#
1&
#10800000
0&
#10850000
10
0#
1&
#10900000
0&
#10950000
b1100 /
00
b1100000000010000000000000000000000000000000000000000000000000000 1
1#
1&
#11000000
0&
#11050000
10
1"
0#
1&
#11100000
0&
#11150000
b1011 /
00
b1000000000100000000000000000000000000000000000000000000000000000 1
1#
1&
#11200000
0&
#11250000
10
0#
1&
#11300000
0&
#11350000
b1010 /
00
b1000000000000000000000000000000000000000000000000000000 1
1#
1&
#11400000
0&
#11450000
10
0"
0#
1&
#11500000
0&
#11550000
b1001 /
00
b10000000000000000000000000000000000000000000000000000000 1
1#
1&
#11600000
0&
#11650000
10
0#
1&
#11700000
0&
#11750000
b1000 /
00
b100000000000000000000000000000000000000000000000000000000 1
1#
1&
#11800000
0&
#11850000
10
0#
1&
#11900000
0&
#11950000
b111 /
00
b1000000000000000000000000000000000000000000000000000000000 1
1#
1&
#12000000
0&
#12050000
10
0#
1&
#12100000
0&
#12150000
b110 /
00
b10000000000000000000000000000000000000000000000000000000000 1
1#
1&
#12200000
0&
#12250000
10
0#
1&
#12300000
0&
#12350000
b101 /
00
b100000000000000000000000000000000000000000000000000000000000 1
1#
1&
#12400000
0&
#12450000
10
0#
1&
#12500000
0&
#12550000
b100 /
00
b1000000000000000000000000000000000000000000000000000000000000 1
1#
1&
#12600000
0&
#12650000
10
0#
1&
#12700000
0&
#12750000
b11 /
00
b10000000000000000000000000000000000000000000000000000000000000 1
1#
1&
#12800000
0&
#12850000
10
0#
1&
#12900000
0&
#12950000
b10 /
00
b100000000000000000000000000000000000000000000000000000000000000 1
1#
1&
#13000000
0&
#13050000
10
0#
1&
#13100000
0&
#13150000
b1 /
00
b1000000000000000000000000000000000000000000000000000000000000000 1
1#
1&
#13200000
0&
#13250000
10
1"
0#
1&
#13300000
0&
#13350000
b10 2
b0 /
00
b0 1
1#
1&
#13400000
0&
#13450000
b0 2
0$
1!
0#
1&
#13500000
0&
#13550000
b1000000 /
0"
b101100000111000010110000011100001011000001110000101100000111 3
1&
#13600000
0&
#13650000
1(
b101100000111000010110000011100001011000001110000101100000111 '
b101100000111000010110000011100001011000001110000101100000111 )
1&
#13700000
0&
#13750000
0(
b1 2
0!
1$
b101100000111000010110000011100001011000001110000101100000111 1
1&
#13800000
0&
#13850000
10
1&
#13900000
0&
#13950000
b111111 /
00
b1011000001110000101100000111000010110000011100001011000001110 1
1#
1&
#14000000
0&
#14050000
10
0#
1&
#14100000
0&
#14150000
b111110 /
00
b10110000011100001011000001110000101100000111000010110000011100 1
1#
1&
#14200000
0&
#14250000
10
0#
1&
#14300000
0&
#14350000
b111101 /
00
b101100000111000010110000011100001011000001110000101100000111000 1
1#
1&
#14400000
0&
#14450000
10
0#
1&
#14500000
0&
#14550000
b111100 /
00
b1011000001110000101100000111000010110000011100001011000001110000 1
1#
1&
#14600000
0&
#14650000
10
1"
0#
1&
#14700000
0&
#14750000
b111011 /
00
b110000011100001011000001110000101100000111000010110000011100000 1
1#
1&
#14800000
0&
#14850000
10
0"
0#
1&
#14900000
0&
#14950000
b111010 /
00
b1100000111000010110000011100001011000001110000101100000111000000 1
1#
1&
#15000000
0&
#15050000
10
1"
0#
1&
#15100000
0&
#15150000
b111001 /
00
b1000001110000101100000111000010110000011100001011000001110000000 1
1#
1&
#15200000
0&
#15250000
10
0#
1&
#15300000
0&
#15350000
b111000 /
00
b11100001011000001110000101100000111000010110000011100000000 1
1#
1&
#15400000
0&
#15450000
10
0"
0#
1&
#15500000
0&
#15550000
b110111 /
00
b111000010110000011100001011000001110000101100000111000000000 1
1#
1&
#15600000
0&
#15650000
10
0#
1&
#15700000
0&
#15750000
b110110 /
00
b1110000101100000111000010110000011100001011000001110000000000 1
1#
1&
#15800000
0&
#15850000
10
0#
1&
#15900000
0&
#15950000
b110101 /
00
b11100001011000001110000101100000111000010110000011100000000000 1
1#
1&
#16000000
0&
#16050000
10
0#
1&
#16100000
0&
#16150000
b110100 /
00
b111000010110000011100001011000001110000101100000111000000000000 1
1#
1&
#16200000
0&
#16250000
10
0#
1&
#16300000
0&
#16350000
b110011 /
00
b1110000101100000111000010110000011100001011000001110000000000000 1
1#
1&
#16400000
0&
#16450000
10
1"
0#
1&
#16500000
0&
#16550000
b110010 /
00
b1100001011000001110000101100000111000010110000011100000000000000 1
1#
1&
#16600000
0&
#16650000
10
0#
1&
#16700000
0&
#16750000
b110001 /
00
b1000010110000011100001011000001110000101100000111000000000000000 1
1#
1&
#16800000
0&
#16850000
10
0#
1&
#16900000
0&
#16950000
b110000 /
00
b101100000111000010110000011100001011000001110000000000000000 1
1#
1&
#17000000
0&
#17050000
10
0"
0#
1&
#17100000
0&
#17150000
b101111 /
00
b1011000001110000101100000111000010110000011100000000000000000 1
1#
1&
#17200000
0&
#17250000
10
0#
1&
#17300000
0&
#17350000
b101110 /
00
b10110000011100001011000001110000101100000111000000000000000000 1
1#
1&
#17400000
0&
#17450000
10
0#
1&
#17500000
0&
#17550000
b101101 /
00
b101100000111000010110000011100001011000001110000000000000000000 1
1#
1&
#17600000
0&
#17650000
10
0#
1&
#17700000
0&
#17750000
b101100 /
00
b1011000001110000101100000111000010110000011100000000000000000000 1
1#
1&
#17800000
0&
#17850000
10
1"
0#
1&
#17900000
0&
#17950000
b101011 /
00
b110000011100001011000001110000101100000111000000000000000000000 1
1#
1&
#18000000
0&
#18050000
10
0"
0#
1&
#18100000
0&
#18150000
b101010 /
00
b1100000111000010110000011100001011000001110000000000000000000000 1
1#
1&
#18200000
0&
#18250000
10
1"
0#
1&
#18300000
0&
#18350000
b101001 /
00
b1000001110000101100000111000010110000011100000000000000000000000 1
1#
1&
#18400000
0&
#18450000
10
0#
1&
#18500000
0&
#18550000
b101000 /
00
b11100001011000001110000101100000111000000000000000000000000 1
1#
1&
#18600000
0&
#18650000
10
0"
0#
1&
#18700000
0&
#18750000
b100111 /
00
b111000010110000011100001011000001110000000000000000000000000 1
1#
1&
#18800000
0&
#18850000
10
0#
1&
#18900000
0&
#18950000
b100110 /
00
b1110000101100000111000010110000011100000000000000000000000000 1
1#
1&
#19000000
0&
#19050000
10
0#
1&
#19100000
0&
#19150000
b100101 /
00
b11100001011000001110000101100000111000000000000000000000000000 1
1#
1&
#19200000
0&
#19250000
10
0#
1&
#19300000
0&
#19350000
b100100 /
00
b111000010110000011100001011000001110000000000000000000000000000 1
1#
1&
#19400000
0&
#19450000
10
0#
1&
#19500000
0&
#19550000
b100011 /
00
b1110000101100000111000010110000011100000000000000000000000000000 1
1#
1&
#19600000
0&
#19650000
10
1"
0#
1&
#19700000
0&
#19750000
b100010 /
00
b1100001011000001110000101100000111000000000000000000000000000000 1
1#
1&
#19800000
0&
#19850000
10
0#
1&
#19900000
0&
#19950000
b100001 /
00
b1000010110000011100001011000001110000000000000000000000000000000 1
1#
1&
#20000000
0&
#20050000
10
0#
1&
#20100000
0&
#20150000
b100000 /
00
b101100000111000010110000011100000000000000000000000000000000 1
1#
1&
#20200000
0&
#20250000
10
0"
0#
1&
#20300000
0&
#20350000
b11111 /
00
b1011000001110000101100000111000000000000000000000000000000000 1
1#
1&
#20400000
0&
#20450000
10
0#
1&
#20500000
0&
#20550000
b11110 /
00
b10110000011100001011000001110000000000000000000000000000000000 1
1#
1&
#20600000
0&
#20650000
10
0#
1&
#20700000
0&
#20750000
b11101 /
00
b101100000111000010110000011100000000000000000000000000000000000 1
1#
1&
#20800000
0&
#20850000
10
0#
1&
#20900000
0&
#20950000
b11100 /
00
b1011000001110000101100000111000000000000000000000000000000000000 1
1#
1&
#21000000
0&
#21050000
10
1"
0#
1&
#21100000
0&
#21150000
b11011 /
00
b110000011100001011000001110000000000000000000000000000000000000 1
1#
1&
#21200000
0&
#21250000
10
0"
0#
1&
#21300000
0&
#21350000
b11010 /
00
b1100000111000010110000011100000000000000000000000000000000000000 1
1#
1&
#21400000
0&
#21450000
10
1"
0#
1&
#21500000
0&
#21550000
b11001 /
00
b1000001110000101100000111000000000000000000000000000000000000000 1
1#
1&
#21600000
0&
#21650000
10
0#
1&
#21700000
0&
#21750000
b11000 /
00
b11100001011000001110000000000000000000000000000000000000000 1
1#
1&
#21800000
0&
#21850000
10
0"
0#
1&
#21900000
0&
#21950000
b10111 /
00
b111000010110000011100000000000000000000000000000000000000000 1
1#
1&
#22000000
0&
#22050000
10
0#
1&
#22100000
0&
#22150000
b10110 /
00
b1110000101100000111000000000000000000000000000000000000000000 1
1#
1&
#22200000
0&
#22250000
10
0#
1&
#22300000
0&
#22350000
b10101 /
00
b11100001011000001110000000000000000000000000000000000000000000 1
1#
1&
#22400000
0&
#22450000
10
0#
1&
#22500000
0&
#22550000
b10100 /
00
b111000010110000011100000000000000000000000000000000000000000000 1
1#
1&
#22600000
0&
#22650000
10
0#
1&
#22700000
0&
#22750000
b10011 /
00
b1110000101100000111000000000000000000000000000000000000000000000 1
1#
1&
#22800000
0&
#22850000
10
1"
0#
1&
#22900000
0&
#22950000
b10010 /
00
b1100001011000001110000000000000000000000000000000000000000000000 1
1#
1&
#23000000
0&
#23050000
10
0#
1&
#23100000
0&
#23150000
b10001 /
00
b1000010110000011100000000000000000000000000000000000000000000000 1
1#
1&
#23200000
0&
#23250000
10
0#
1&
#23300000
0&
#23350000
b10000 /
00
b101100000111000000000000000000000000000000000000000000000000 1
1#
1&
#23400000
0&
#23450000
10
0"
0#
1&
#23500000
0&
#23550000
b1111 /
00
b1011000001110000000000000000000000000000000000000000000000000 1
1#
1&
#23600000
0&
#23650000
10
0#
1&
#23700000
0&
#23750000
b1110 /
00
b10110000011100000000000000000000000000000000000000000000000000 1
1#
1&
#23800000
0&
#23850000
10
0#
1&
#23900000
0&
#23950000
b1101 /
00
b101100000111000000000000000000000000000000000000000000000000000 1
1#
1&
#24000000
0&
#24050000
10
0#
1&
#24100000
0&
#24150000
b1100 /
00
b1011000001110000000000000000000000000000000000000000000000000000 1
1#
1&
#24200000
0&
#24250000
10
1"
0#
1&
#24300000
0&
#24350000
b1011 /
00
b110000011100000000000000000000000000000000000000000000000000000 1
1#
1&
#24400000
0&
#24450000
10
0"
0#
1&
#24500000
0&
#24550000
b1010 /
00
b1100000111000000000000000000000000000000000000000000000000000000 1
1#
1&
#24600000
0&
#24650000
10
1"
0#
1&
#24700000
0&
#24750000
b1001 /
00
b1000001110000000000000000000000000000000000000000000000000000000 1
1#
1&
#24800000
0&
#24850000
10
0#
1&
#24900000
0&
#24950000
b1000 /
00
b11100000000000000000000000000000000000000000000000000000000 1
1#
1&
#25000000
0&
#25050000
10
0"
0#
1&
#25100000
0&
#25150000
b111 /
00
b111000000000000000000000000000000000000000000000000000000000 1
1#
1&
#25200000
0&
#25250000
10
0#
1&
#25300000
0&
#25350000
b110 /
00
b1110000000000000000000000000000000000000000000000000000000000 1
1#
1&
#25400000
0&
#25450000
10
0#
1&
#25500000
0&
#25550000
b101 /
00
b11100000000000000000000000000000000000000000000000000000000000 1
1#
1&
#25600000
0&
#25650000
10
0#
1&
#25700000
0&
#25750000
b100 /
00
b111000000000000000000000000000000000000000000000000000000000000 1
1#
1&
#25800000
0&
#25850000
10
0#
1&
#25900000
0&
#25950000
b11 /
00
b1110000000000000000000000000000000000000000000000000000000000000 1
1#
1&
#26000000
0&
#26050000
10
1"
0#
1&
#26100000
0&
#26150000
b10 /
00
b1100000000000000000000000000000000000000000000000000000000000000 1
1#
1&
#26200000
0&
#26250000
10
0#
1&
#26300000
0&
#26350000
b1 /
00
b1000000000000000000000000000000000000000000000000000000000000000 1
1#
1&
#26400000
0&
#26450000
10
0#
1&
#26500000
0&
#26550000
b10 2
b0 /
00
b0 1
1#
1&
#26600000
0&
#26650000
b0 2
0$
1!
0#
1&
#26700000
0&
#26750000
b1000000 /
0"
b101000001111000010100000111100001010000011110000101000001111 3
1&
#26800000
0&
#26850000
1(
b101000001111000010100000111100001010000011110000101000001111 '
b101000001111000010100000111100001010000011110000101000001111 )
1&
#26900000
0&
#26950000
0(
b1 2
0!
1$
b101000001111000010100000111100001010000011110000101000001111 1
1&
#27000000
0&
#27050000
10
1&
#27100000
0&
#27150000
b111111 /
00
b1010000011110000101000001111000010100000111100001010000011110 1
1#
1&
#27200000
0&
#27250000
10
0#
1&
#27300000
0&
#27350000
b111110 /
00
b10100000111100001010000011110000101000001111000010100000111100 1
1#
1&
#27400000
0&
#27450000
10
0#
1&
#27500000
0&
#27550000
b111101 /
00
b101000001111000010100000111100001010000011110000101000001111000 1
1#
1&
#27600000
0&
#27650000
10
0#
1&
#27700000
0&
#27750000
b111100 /
00
b1010000011110000101000001111000010100000111100001010000011110000 1
1#
1&
#27800000
0&
#27850000
10
1"
0#
1&
#27900000
0&
#27950000
b111011 /
00
b100000111100001010000011110000101000001111000010100000111100000 1
1#
1&
#28000000
0&
#28050000
10
0"
0#
1&
#28100000
0&
#28150000
b111010 /
00
b1000001111000010100000111100001010000011110000101000001111000000 1
1#
1&
#28200000
0&
#28250000
10
1"
0#
1&
#28300000
0&
#28350000
b111001 /
00
b11110000101000001111000010100000111100001010000011110000000 1
1#
1&
#28400000
0&
#28450000
10
0"
0#
1&
#28500000
0&
#28550000
b111000 /
00
b111100001010000011110000101000001111000010100000111100000000 1
1#
1&
#28600000
0&
#28650000
10
0#
1&
#28700000
0&
#28750000
b110111 /
00
b1111000010100000111100001010000011110000101000001111000000000 1
1#
1&
#28800000
0&
#28850000
10
0#
1&
#28900000
0&
#28950000
b110110 /
00
b11110000101000001111000010100000111100001010000011110000000000 1
1#
1&
#29000000
0&
#29050000
10
0#
1&
#29100000
0&
#29150000
b110101 /
00
b111100001010000011110000101000001111000010100000111100000000000 1
1#
1&
#29200000
0&
#29250000
10
0#
1&
#29300000
0&
#29350000
b110100 /
00
b1111000010100000111100001010000011110000101000001111000000000000 1
1#
1&
#29400000
0&
#29450000
10
1"
0#
1&
#29500000
0&
#29550000
b110011 /
00
b1110000101000001111000010100000111100001010000011110000000000000 1
1#
1&
#29600000
0&
#29650000
10
0#
1&
#29700000
0&
#29750000
b110010 /
00
b1100001010000011110000101000001111000010100000111100000000000000 1
1#
1&
#29800000
0&
#29850000
10
0#
1&
#29900000
0&
#29950000
b110001 /
00
b1000010100000111100001010000011110000101000001111000000000000000 1
1#
1&
#30000000
0&
#30050000
10
0#
1&
#30100000
0&
#30150000
b110000 /
00
b101000001111000010100000111100001010000011110000000000000000 1
1#
1&
#30200000
0&
#30250000
10
0"
0#
1&
#30300000
0&
#30350000
b101111 /
00
b1010000011110000101000001111000010100000111100000000000000000 1
1#
1&
#30400000
0&
#30450000
10
0#
1&
#30500000
0&
#30550000
b101110 /
00
b10100000111100001010000011110000101000001111000000000000000000 1
1#
1&
#30600000
0&
#30650000
10
0#
1&
#30700000
0&
#30750000
b101101 /
00
b101000001111000010100000111100001010000011110000000000000000000 1
1#
1&
#30800000
0&
#30850000
10
0#
1&
#30900000
0&
#30950000
b101100 /
00
b1010000011110000101000001111000010100000111100000000000000000000 1
1#
1&
#31000000
0&
#31050000
10
1"
0#
1&
#31100000
0&
#31150000
b101011 /
00
b100000111100001010000011110000101000001111000000000000000000000 1
1#
1&
#31200000
0&
#31250000
10
0"
0#
1&
#31300000
0&
#31350000
b101010 /
00
b1000001111000010100000111100001010000011110000000000000000000000 1
1#
1&
#31400000
0&
#31450000
10
1"
0#
1&
#31500000
0&
#31550000
b101001 /
00
b11110000101000001111000010100000111100000000000000000000000 1
1#
1&
#31600000
0&
#31650000
10
0"
0#
1&
#31700000
0&
#31750000
b101000 /
00
b111100001010000011110000101000001111000000000000000000000000 1
1#
1&
#31800000
0&
#31850000
10
0#
1&
#31900000
0&
#31950000
b100111 /
00
b1111000010100000111100001010000011110000000000000000000000000 1
1#
1&
#32000000
0&
#32050000
10
0#
1&
#32100000
0&
#32150000
b100110 /
00
b11110000101000001111000010100000111100000000000000000000000000 1
1#
1&
#32200000
0&
#32250000
10
0#
1&
#32300000
0&
#32350000
b100101 /
00
b111100001010000011110000101000001111000000000000000000000000000 1
1#
1&
#32400000
0&
#32450000
10
0#
1&
#32500000
0&
#32550000
b100100 /
00
b1111000010100000111100001010000011110000000000000000000000000000 1
1#
1&
#32600000
0&
#32650000
10
1"
0#
1&
#32700000
0&
#32750000
b100011 /
00
b1110000101000001111000010100000111100000000000000000000000000000 1
1#
1&
#32800000
0&
#32850000
10
0#
1&
#32900000
0&
#32950000
b100010 /
00
b1100001010000011110000101000001111000000000000000000000000000000 1
1#
1&
#33000000
0&
#33050000
10
0#
1&
#33100000
0&
#33150000
b100001 /
00
b1000010100000111100001010000011110000000000000000000000000000000 1
1#
1&
#33200000
0&
#33250000
10
0#
1&
#33300000
0&
#33350000
b100000 /
00
b101000001111000010100000111100000000000000000000000000000000 1
1#
1&
#33400000
0&
#33450000
10
0"
0#
1&
#33500000
0&
#33550000
b11111 /
00
b1010000011110000101000001111000000000000000000000000000000000 1
1#
1&
#33600000
0&
#33650000
10
0#
1&
#33700000
0&
#33750000
b11110 /
00
b10100000111100001010000011110000000000000000000000000000000000 1
1#
1&
#33800000
0&
#33850000
10
0#
1&
#33900000
0&
#33950000
b11101 /
00
b101000001111000010100000111100000000000000000000000000000000000 1
1#
1&
#34000000
0&
#34050000
10
0#
1&
#34100000
0&
#34150000
b11100 /
00
b1010000011110000101000001111000000000000000000000000000000000000 1
1#
1&
#34200000
0&
#34250000
10
1"
0#
1&
#34300000
0&
#34350000
b11011 /
00
b100000111100001010000011110000000000000000000000000000000000000 1
1#
1&
#34400000
0&
#34450000
10
0"
0#
1&
#34500000
0&
#34550000
b11010 /
00
b1000001111000010100000111100000000000000000000000000000000000000 1
1#
1&
#34600000
0&
#34650000
10
1"
0#
1&
#34700000
0&
#34750000
b11001 /
00
b11110000101000001111000000000000000000000000000000000000000 1
1#
1&
#34800000
0&
#34850000
10
0"
0#
1&
#34900000
0&
#34950000
b11000 /
00
b111100001010000011110000000000000000000000000000000000000000 1
1#
1&
#35000000
0&
#35050000
10
0#
1&
#35100000
0&
#35150000
b10111 /
00
b1111000010100000111100000000000000000000000000000000000000000 1
1#
1&
#35200000
0&
#35250000
10
0#
1&
#35300000
0&
#35350000
b10110 /
00
b11110000101000001111000000000000000000000000000000000000000000 1
1#
1&
#35400000
0&
#35450000
10
0#
1&
#35500000
0&
#35550000
b10101 /
00
b111100001010000011110000000000000000000000000000000000000000000 1
1#
1&
#35600000
0&
#35650000
10
0#
1&
#35700000
0&
#35750000
b10100 /
00
b1111000010100000111100000000000000000000000000000000000000000000 1
1#
1&
#35800000
0&
#35850000
10
1"
0#
1&
#35900000
0&
#35950000
b10011 /
00
b1110000101000001111000000000000000000000000000000000000000000000 1
1#
1&
#36000000
0&
#36050000
10
0#
1&
#36100000
0&
#36150000
b10010 /
00
b1100001010000011110000000000000000000000000000000000000000000000 1
1#
1&
#36200000
0&
#36250000
10
0#
1&
#36300000
0&
#36350000
b10001 /
00
b1000010100000111100000000000000000000000000000000000000000000000 1
1#
1&
#36400000
0&
#36450000
10
0#
1&
#36500000
0&
#36550000
b10000 /
00
b101000001111000000000000000000000000000000000000000000000000 1
1#
1&
#36600000
0&
#36650000
10
0"
0#
1&
#36700000
0&
#36750000
b1111 /
00
b1010000011110000000000000000000000000000000000000000000000000 1
1#
1&
#36800000
0&
#36850000
10
0#
1&
#36900000
0&
#36950000
b1110 /
00
b10100000111100000000000000000000000000000000000000000000000000 1
1#
1&
#37000000
0&
#37050000
10
0#
1&
#37100000
0&
#37150000
b1101 /
00
b101000001111000000000000000000000000000000000000000000000000000 1
1#
1&
#37200000
0&
#37250000
10
0#
1&
#37300000
0&
#37350000
b1100 /
00
b1010000011110000000000000000000000000000000000000000000000000000 1
1#
1&
#37400000
0&
#37450000
10
1"
0#
1&
#37500000
0&
#37550000
b1011 /
00
b100000111100000000000000000000000000000000000000000000000000000 1
1#
1&
#37600000
0&
#37650000
10
0"
0#
1&
#37700000
0&
#37750000
b1010 /
00
b1000001111000000000000000000000000000000000000000000000000000000 1
1#
1&
#37800000
0&
#37850000
10
1"
0#
1&
#37900000
0&
#37950000
b1001 /
00
b11110000000000000000000000000000000000000000000000000000000 1
1#
1&
#38000000
0&
#38050000
10
0"
0#
1&
#38100000
0&
#38150000
b1000 /
00
b111100000000000000000000000000000000000000000000000000000000 1
1#
1&
#38200000
0&
#38250000
10
0#
1&
#38300000
0&
#38350000
b111 /
00
b1111000000000000000000000000000000000000000000000000000000000 1
1#
1&
#38400000
0&
#38450000
10
0#
1&
#38500000
0&
#38550000
b110 /
00
b11110000000000000000000000000000000000000000000000000000000000 1
1#
1&
#38600000
0&
#38650000
10
0#
1&
#38700000
0&
